﻿Name,Username,"Last Active","Sign Up",Email,Orders,"Total Spend",AOV,"Country / Region",City,Region,"Postal Code"
"Anna Perry",anna.perry,2020-11-16T00:00:00,2020-11-16T06:09:39,sneltrain90@gmail.com,1,64.96,64.96,CA,Esquimalt,BC,"V9A 5N9"
"Palmer Nowak",palmer.nowak,2020-11-13T00:00:00,2020-11-13T01:53:54,palmer_nowak@live.ca,1,48.39,48.39,CA,Winnipeg,MB,"R3N 0X7"
"Sarah Johannson",sarah.johannson,2020-11-10T00:00:00,2020-11-10T19:30:27,dsjohannson@sasktel.net,1,59.94,59.94,CA,Asquith,SK,"S0K 0J0"
"Heather Shyluk",heather.shyluk,2020-11-10T00:00:00,2020-11-10T16:07:31,heather.shyluk@hotmail.com,1,31.96,31.96,CA,"saskatoon, sk",SK,"S7K 5N8"
"Gena Laliberte",gena.laliberte,2020-11-10T00:00:00,2020-11-10T05:22:54,gena_laliberte@hotmail.com,1,15.98,15.98,CA,Saskatoon,SK,"S7V 0W7"
"Chantal Schedlosky",chantal.schedlosky,2020-11-10T00:00:00,2020-11-10T05:07:27,crschedlosky@gmail.com,1,31.97,31.97,CA,Martensville,SK,"S0K 0A2"
"Amanda Leeson",amanda.leeson,2020-11-10T00:00:00,2020-11-10T05:05:22,amandal_22@hotmail.com,1,31.97,31.97,CA,Unity,SK,"S0K 4L0"
"Michelle J Buckle","michelle j.buckle",2020-11-10T00:00:00,2020-11-08T19:43:39,mjbuckle@shaw.ca,1,309.75,309.75,CA,Hamilton,ON,"L0R 1P0"
"Casey Napper",casey.napper,2020-11-07T00:00:00,2020-11-07T18:31:54,caseynapper@gmail.com,1,17.76,17.76,CA,Saskatoon,SK,"S7V 0N1"
"Courtney Fauchon",courtney.fauchon,2020-11-07T00:00:00,2020-11-07T12:57:16,courtney.strain@hotmail.com,1,35.52,35.52,CA,Battleford,SK,"S0M 0E0"
"Brandis OHara",brandis.ohara,2020-11-07T00:00:00,2020-11-07T02:15:19,brandis_lee@hotmail.con,1,68.82,68.82,CA,Ceylon,SK,"S0C 0T0"
"Danielle Opfergelt",danielle.opfergelt,2020-11-07T00:00:00,2020-11-06T19:52:56,danielle.erickson@hotmail.ca,1,17.76,17.76,CA,Saskatoon,SK,"S7T 0N2"
"Valerie Caron",valerie.caron,2020-11-04T00:00:00,2020-11-04T02:02:26,valerielynne.caron@gmail.com,1,71.04,71.04,CA,Saskatoon,SK,"S7K 6E2"
"Ada Ray",ada.ray,2020-11-13T00:00:00,2020-11-02T23:35:11,adaray37@gmail.com,1,73.50,73.50,CA,Beaverlodge,AB,"T0H 0C0"
"Jenny Storey",jenny.storey,2020-11-04T00:00:00,2020-11-02T04:00:28,jeolenchuk@gmail.com,1,35.52,35.52,CA,Saskatoon,SK,"S7R 0A5"
" ",sid.lerner,2020-11-14T00:00:00,2020-10-31T18:11:48,sid.lerner@mbpc-cpmb.ca,0,0.00,0.00,,,,
"Jessica Risbey",jessica.risbey,2020-10-31T00:00:00,2020-10-30T22:47:30,missris@gmx.com,1,20.16,20.16,CA,Winnipeg,MB,"R2Y 2H7"
"Kailey peters",kailey.peters,2020-10-29T00:00:00,2020-10-28T19:39:20,kaileybpeters@gmail.com,1,23.46,23.46,CA,Winkler,MB,"R6W 1E4"
"Devin P",devinpatterson,2020-11-03T00:00:00,2020-10-26T17:38:56,devinpatterson@live.ca,1,42.49,42.49,CA,Fredericton,NB,"E3B 2G2"
"Luis Agurto",luis.agurto,2020-10-27T00:00:00,2020-10-23T20:52:47,lajr05@outlook.com,1,54.24,54.24,CA,Orangeville,ON,"L9W 0B8"
"Francine Fournier",francine.fournier-9833,2020-10-22T00:00:00,2020-10-22T15:35:24,francine.fournier@cibc.com,1,118.72,118.72,CA,Winnipeg,MB,"R3M 1A9"
"Alexandra Piekos",alexandra.piekos,2020-10-19T00:00:00,2020-10-19T20:40:34,alexandra.piekos@gmail.com,1,56.50,56.50,CA,Brantford,ON,"N3T 2N7"
"Allison Martin",allison.martin,2020-10-18T00:00:00,2020-10-18T17:46:50,allisonmweiss@gmail.com,1,54.24,54.24,CA,Toronto,ON,"M6G 2C2"
"Sharifa Bakharia",sharifa.bakharia,2020-10-16T00:00:00,2020-10-16T04:14:22,sharifabakharia@gmail.com,1,23.67,23.67,CA,Toronto,ON,"M4L 0A2"
"Odessa Rosati",odessa.rosati,2020-10-28T00:00:00,2020-10-16T04:14:09,odessarosati@gmail.com,1,58.24,58.24,CA,Winnipeg,MB,"R3P 0S8"
"Kylie Case",kylie.case,2020-10-16T00:00:00,2020-10-16T00:27:38,kyliecase4@hotmail.com,1,35.84,35.84,CA,Winnipeg,MB,"R2Y 1B1"
"Brian Marich",brian.marich,2020-10-15T00:00:00,2020-10-15T20:13:38,bmarich@outlook.com,1,53.76,53.76,CA,Winnipeg,MB,"R2G 3Z5"
"Sherri Freedman",sherri.freedman,2020-10-15T00:00:00,2020-10-15T11:08:46,sherri.freedman@icloud.com,1,38.08,38.08,CA,Toronto,MB,"M6C 3A7"
"Frieda Hurlburt",friedah2,2020-10-15T00:00:00,2020-10-14T14:11:51,friedah2@mymts.net,2,190.40,95.20,CA,Winnipeg,MB,"R2G 2P5"
"Julia Skagfjord",julia.skagfjord,2020-10-13T00:00:00,2020-10-13T00:21:53,juliajube@hotmail.com,1,35.84,35.84,CA,"Campbell River",BC,"V9W 3J4"
"Walter Bauer",walter.bauer,2020-10-09T00:00:00,2020-10-09T02:27:20,walter.bigisland@gmail.com,1,38.42,38.42,CA,Demorestville,ON,"K0K 1W0"
"KD McGillivray",kd.mcgillivray,2020-10-12T00:00:00,2020-10-08T00:55:14,bkmcgill@telus.net,1,35.70,35.70,CA,Airdrie,AB,"T4B 0H2"
"Ashley Clerk",ashley.clerk,2020-10-07T00:00:00,2020-10-07T18:16:07,ahacquoi@icloud.com,1,56.70,56.70,CA,"Bragg Creek",AB,"T0L 0K0"
"Jennie Diacos",jennie.diacos,2020-10-07T00:00:00,2020-10-07T02:26:41,gdiacos@shaw.ca,1,38.08,38.08,CA,Winnipeg,MB,"R3J 2K7"
"Adriana TORRES",adriana.torres,2020-10-16T00:00:00,2020-10-07T00:28:07,atorres18@gmail.com,1,38.42,38.42,CA,Toronto,ON,"M8Z 0B9"
"Janelle Hague",janelle.hague,2020-10-07T00:00:00,2020-10-05T23:04:56,janellehague@hotmail.com,1,498.40,498.40,CA,Winnipeg,MB,"R3P 0T7"
"Kim Hucko",kim.hucko,2020-10-02T00:00:00,2020-10-02T13:07:04,khucko@mts.net,1,71.68,71.68,CA,"East St. Paul",MB,"R2E 0H3"
"Treena Soura",treena.soura,2020-10-01T00:00:00,2020-10-01T23:10:00,treenasoura@gmail.com,1,89.60,89.60,CA,Winnipeg,MB,"R3M 0S1"
"Emily Kinnaird",emily.kinnaird,2020-10-04T00:00:00,2020-10-01T01:08:46,emilyjaie@outlook.com,1,109.76,109.76,CA,Winnipeg,MB,"R3R 2C5"
"Dobrila Braunstein",dobrila.braunstein,2020-09-29T00:00:00,2020-09-29T19:05:27,dobrila.braunstein@gmail.com,1,123.20,123.20,CA,Kelowna,BC,"V1X 3S9"
"Danielle Forhan",danielle.forhan,2020-11-09T00:00:00,2020-09-29T18:46:15,danielle.forhan@hotmail.com,3,178.54,59.51,CA,Barrie,ON,"L4N 9L8"
"Mehwish Jilani",mehwish.jilani,2020-10-13T00:00:00,2020-09-28T19:27:04,jilani.mehwish@gmail.com,2,117.52,58.76,CA,Mississauga,ON,"L5M 0X9"
"Jen De Castro","jen.de castro",2020-09-28T00:00:00,2020-09-28T01:30:59,jenniferesguerra39@yahoo.com,1,21.22,21.22,CA,Winnipeg,MB,"R2X 0G9"
"Michael Benson",michael.benson,2020-09-26T00:00:00,2020-09-26T17:47:25,mikeeriepa@hotmail.com,1,36.95,36.95,US,Erie,PA,16511-1978
"Carol Gubisi",carol.gubisi,2020-09-25T00:00:00,2020-09-25T17:15:47,cgubisi@gmail.com,1,72.32,72.32,CA,Burlington,ON,"L7M 4A7"
"Leanne Combs",leanne.combs,2020-09-18T00:00:00,2020-09-18T03:18:43,lrobtz@gmail.com,1,41.38,41.38,CA,"Port Coquitlam",BC,"V3B 6B6"
"Allan Gordon",allangordon600,2020-09-23T00:00:00,2020-09-17T22:21:29,allangordon600@gmail.com,1,77.91,77.91,CA,Toronto,ON,"M2L 2E6"
"Lisa Niemi",lisa.niemi,2020-09-19T00:00:00,2020-09-17T20:25:05,lmanych@hotnail.com,1,77.22,77.22,CA,"The Pas",MB,"R9A 1K4"
"rhonda mandau",rhonda.mandau,2020-09-25T00:00:00,2020-09-16T13:23:24,rhondamandau@gmail.com,1,55.60,55.60,CA,Edmonton,AB,"T5N 2R4"
"Flory Bell",flory.bell,2020-09-15T00:00:00,2020-09-15T14:40:07,flory@live.ca,0,0.00,0.00,CA,Sudbury,ON,"P3G 1C1"
"Anjula Gogia",anjula.gogia,2020-09-15T00:00:00,2020-09-15T02:06:06,anjulagogia@gmail.com,1,137.86,137.86,CA,Toronto,ON,"M6G 3K8"
"Teresa Herbert",teresa.herbert,2020-09-14T00:00:00,2020-09-13T13:11:42,therbert5@gmail.com,0,0.00,0.00,CA,Oakville,ON,"L6H 2M7"
"April Ortega",april.ortega,2020-09-13T00:00:00,2020-09-12T19:57:32,acan143@gmail.com,1,21.22,21.22,CA,Winnipeg,MB,"R2C 3X6"
"Sarah Zelcer",sarah.zelcer,2020-09-12T00:00:00,2020-09-12T13:32:46,sarahmichellezelcer@gmail.com,1,146.90,146.90,CA,Toronto,ON,"M6G 2E7"
"Amanda Colvin",amanda.colvin,2020-09-17T00:00:00,2020-09-12T13:17:39,nivloca5@gmail.com,2,118.60,59.30,CA,Winnipeg,MB,"R2G 1T9"
"Shirley Adderley",shirley.adderley,2020-09-11T00:00:00,2020-09-11T23:22:34,dsadds88@rogers.com,1,76.84,76.84,CA,Stouffville,ON,"L4A 1R3"
"Jenny Carbajal",jenny.carbajal,2020-09-21T00:00:00,2020-09-11T04:00:38,jennyfercc@hotmail.com,1,63.28,63.28,CA,Toronto,ON,"M2N 0H1"
"Jacob Wharton-Shukster",jacob.wharton-shukster,2020-09-10T00:00:00,2020-09-10T23:27:22,jwharshuk@gmail.com,1,71.68,71.68,CA,Toronto,MB,"M6K 2G2"
"Christine Patten",christine.patten,2020-09-10T00:00:00,2020-09-10T22:34:37,c-patten@hotmail.com,1,41.75,41.75,CA,Collingwood,ON,"L9Y 3Y9"
"Francine Fournier",francine.fournier,2020-09-14T00:00:00,2020-09-10T18:44:43,francinefournier123@hotmail.com,1,114.24,114.24,CA,Winnipeg,MB,"R3M 1A9"
"Lisa Kellman",lisa.kellman,2020-10-23T00:00:00,2020-09-10T14:37:38,lkellman6@gmail.com,1,73.60,73.60,CA,Antigonish,NS,"B2G 2K9"
"Stephanie Bahnuik",stephanie.laurel,2020-09-10T00:00:00,2020-09-10T14:32:25,stephanie.laurel@hotmail.com,1,106.56,106.56,CA,Saskatoon,SK,"S7N 4M2"
"Carolyn Kearns",carolyn.kearns,2020-09-12T00:00:00,2020-09-10T12:40:29,carolynmaekearns@gmail.com,1,140.12,140.12,CA,Moosonee,ON,"P0L 1Y0"
"Anna Mikhailitchenko",anna.mikhailitchenko,2020-09-21T00:00:00,2020-09-09T21:46:25,angelanichka_11@hotmail.com,1,43.62,43.62,CA,Brampton,ON,"L6X 5C3"
"Denise Grin",deniseandbrock,2020-09-08T00:00:00,2020-09-08T07:41:09,deniseandbrock@gmail.com,1,17.92,17.92,CA,Surrey,BC,"V3S 7V1"
"Margaret Sarazin",margaret.sarazin,2020-09-08T00:00:00,2020-09-08T06:00:25,chantsarazin@gmail.com,1,71.68,71.68,CA,Burnaby,BC,"V5C 2P9"
"Kate Slubik",kate.slubik,2020-09-12T00:00:00,2020-09-08T01:08:49,kateslubik@gmail.com,1,33.60,33.60,CA,"Red Deer",AB,"T4P 0L2"
"Gordon Fritsch",gordon.fritsch,2020-09-07T00:00:00,2020-09-07T22:41:19,gfritsch@telus.net,1,0.00,0.00,CA,Esquimalt,BC,"V9A 0A5"
"Sherri Russell",sherri.russell,2020-09-09T00:00:00,2020-09-07T15:59:18,robandsherri.russell@gmail.com,1,89.60,89.60,CA,Winnipeg,MB,"R2V 4N8"
"Bronwyn Williams",bronwyn.williams,2020-09-07T00:00:00,2020-09-07T14:24:53,bronwynwilliams@sbcglobal.net,1,16.00,16.00,US,Belton,MO,64012
"Carla Mulligan",carla.mulligan,2020-09-06T00:00:00,2020-09-06T23:07:26,clairemariesaphir@gmail.com,1,17.92,17.92,CA,Winnipeg,MB,"R3R 3P5"
"Michelle Pollock-Kohn",michelle.pollock-kohn,2020-09-06T00:00:00,2020-09-06T22:55:22,mpollockkohn@shaw.ca,1,179.20,179.20,CA,Winnipeg,MB,"R3P 1W7"
"Angela Battiston",angela.battiston,2020-09-17T00:00:00,2020-09-05T21:02:28,angelamaebattiston@gmail.com,2,203.40,101.70,CA,York,ON,"M6S 4G8"
"Victoria Clarke",TSG,2020-11-06T00:00:00,2020-07-19T16:55:50,tory@thesartorialgroup.com,3,1066.60,355.53,CA,Toronto,ON,
"Katherine Kubik",,2020-11-15T03:47:38,,katkubik15@gmail.com,1,59.30,59.30,CA,Winnipeg,MB,"R3X 0K2"
"Elizabeth Moreau",,2020-09-13T15:41:30,,elizabethm@cps.ca,1,41.75,41.75,CA,Ottawa,ON,"K1T 3L7"
"Liz Rampersad",,2020-10-04T15:19:38,,lizrampersad15@gmail.com,1,21.41,21.41,CA,"Terrace Bay",ON,"P0T 2W0"
"Jessica Knoop",,2020-11-13T02:30:31,,jessicad133@hotmail.com,0,0.00,0.00,CA,Saskatoon,SK,"S7W 0L5"
"Abbee Corb",,2020-09-11T23:41:23,,abbeecorb@me.com,1,25.93,25.93,CA,Burlington,ON,"L7M 0B4"
"Gary Shnier",,2020-10-30T21:57:48,,gary@imperialflooring.ca,1,35.84,35.84,CA,Winnipeg,MB,"R3P 2E4"
"Jel Unger",,2020-11-10T05:54:48,,jelienne.unger@gmail.com,1,29.97,29.97,CA,"Swift Current",SK,"S9H 4W9"
"Horacio Gomez",,2020-10-12T00:33:16,,lacho_50@hotmail.com,1,144.42,144.42,MX,Orizaba,VE,94300
"sonal patel",,2020-11-06T18:41:52,,son_jasmine28@yahoo.com,1,17.76,17.76,CA,Saskatoon,SK,"S7W 0P1"
"Devin Patterson",,2020-10-01T19:58:05,,devinpatterson@live.ca,1,24.09,24.09,CA,Fredericton,NB,"E3B 2G2"
"Annie Lei",,2020-10-28T00:50:18,,alei@shaw.ca,1,67.20,67.20,CA,Edmonton,AB,"T5T 4G3"
"Gwendolyn Janzen",,2020-11-08T05:17:15,,gjjanzen@yahoo.ca,1,35.84,35.84,CA,"Plum Coulee",MB,"R0G 1R0"
"Jocelyne Prefontaine",,2020-10-08T01:21:01,,jocelyne@beytna.net,1,89.60,89.60,CA,Winnipeg,MB,"R2G 1P6"
"Alison Cathro",,2020-11-03T03:11:44,,alison.cathro@gmail.com,1,84.00,84.00,US,Sammamish,WA,98075
"Jennifer Robinson",,2020-10-25T21:59:39,,jennrobinson@me.com,1,404.25,404.25,CA,Calgary,AB,"T3G 5S4"
"Haley Miller",,2020-11-07T10:41:11,,haley.millerc@gmail.com,1,35.52,35.52,CA,Regina,SK,"S4S 1B1"
"Jen Gould",,2020-09-07T19:54:12,,jgould02@hotmail.com,1,38.42,38.42,CA,Aurora,ON,"L4G 7R2"
"Kelsey Schick",,2020-11-06T23:25:19,,Schick.kelsey@gmail.com,1,17.76,17.76,CA,Saskatoon,SK,"S7M 0A8"
"Alyk Lally",,2020-09-19T21:40:37,,worldstar7107@gmail.com,1,22.00,22.00,CA,Calgary,AB,"T3N 1E8"
"Robyn Paton",,2020-10-19T13:50:17,,robyn@robynpaton.com,1,54.24,54.24,CA,Ottawa,ON,"K1Y 2E9"
"Amanda Kushnir",,2020-09-06T13:05:51,,amanda.kushnir@gmail.com,1,36.16,36.16,CA,Toronto,ON,"M5N 1S3"
"Jennifer Simpson",,2020-11-10T21:08:09,,simmyj_05@hotmail.com,1,15.98,15.98,CA,Saskatoon,SK,"S7T 0E3"
"Karen Aptekar",,2020-10-17T19:50:06,,karen@notjustperfume.com,1,64.00,64.00,US,Bellaire,TX,77401
"Danica Nelson",,2020-09-16T16:46:16,,Danicasnelson@gmail.com,1,23.67,23.67,CA,Brampton,ON,"L6T 2E7"
"Lise Jagoe",,2020-11-06T19:40:55,,lisejagoe@gmail.com,1,17.76,17.76,CA,Saskatoon,SK,"S7J 4J6"
"Marsha Leary",,2020-09-05T13:11:48,,learymar@gmail.com,1,53.76,53.76,CA,Winnipeg,MB,"R2N 3M4"
"Jackie Washenfelder",,2020-11-10T05:22:26,,jackie.washenfelder@gmail.com,1,33.96,33.96,CA,YORKTON,SK,"S3N 2R5"
"Natalie Marjanovic",,2020-09-22T20:55:59,,natmarjanovic@hotmail.com,1,57.57,57.57,CA,Mississauga,ON,"L4Y 2P8"
"Kara Greywood",,2020-10-15T22:49:35,,karagreywood@live.com,1,38.08,38.08,CA,"La Broquerie",MB,"R0A 0W0"
"Courtney Murgatroyd",,2020-09-22T02:42:40,,courtney@webberisland.com,2,186.39,93.20,CA,Minesing,ON,"L9X 0H8"
"Chelsea Magera",,2020-11-07T01:29:31,,cbamagera@hotmail.com,1,37.74,37.74,CA,Saskatoon,SK,"S7M 5W4"
"Susana Scott",,2020-09-28T19:35:59,,susana@brematson.ca,2,168.00,84.00,CA,Winnipeg,MB,"R3Y 1W4"
"Vicki Flynn",,2020-09-13T16:52:01,,vflynn7@yahoo.ca,2,170.24,85.12,CA,Winnipeg,MB,"R3Y 0G6"
"Kelsey Lander",,2020-10-01T15:08:43,,kelsey_lander@hotmail.com,1,54.24,54.24,CA,Midhurst,ON,"L9X 0P5"
"Wanda Siatecki’s",,2020-11-02T23:56:26,,wsiatecki@mts.net,1,35.84,35.84,CA,Winnipeg,MB,"R2M 4H8"
"Kaytlyn Wilson",,2020-11-15T05:32:54,,kaytlyncampbell@gmail.com,1,43.00,43.00,CA,Edmonton,AB,"T6M 0X6"
"Christene Ostapczuk",,2020-09-27T19:09:53,,COstapczuk@waa.ca,1,56.00,56.00,CA,Winnipeg,MB,"R3M 3P7"
"Tracy kadolph",,2020-09-12T00:26:42,,kadolph12@gmail.com,1,23.46,23.46,CA,Winnipeg,MB,"R3J 0X2"
"Jamie Reimer",,2020-11-13T02:38:19,,jamie.reimer@hotmail.com,1,72.32,72.32,CA,Vineland,ON,"L0R 2C0"
"Katelyn Kurtz",,2020-10-28T05:00:33,,katiekurtz14@hotmail.com,1,71.68,71.68,CA,Winnipeg,MB,"R3K 1Y7"
"Raeanne Peever",,2020-11-10T18:54:11,,raeannepeever@gmail.com,1,41.01,41.01,CA,Saskatoon,SK,"S7K 2N8"
"payman saadati",,2020-09-16T13:11:44,,saadati.p@gmail.com,1,38.80,38.80,CA,Gatineau,QC,"J8V 2T5"
"Jill Christensen",,2020-11-10T13:35:02,,jillianc56@hotmail.com,1,56.45,56.45,CA,Saskatoon,MB,"S7J 2P9"
"Naomie Tremblay",,2020-10-22T16:51:59,,naomie.tremblay@gmail.com,1,33.60,33.60,CA,Montreal,QC,"H1W 2W9"
"Jerry Rubin",,2020-10-08T21:23:20,,jerryrubinartwork@gmail.com,2,125.44,62.72,CA,Winnipeg,MB,"R2V 3S3"
"Chantelle Gauthier",,2020-09-26T21:19:56,,chantelle.gauthier@gmail.com,1,53.76,53.76,CA,Niverville,MB,"R0A 0A2"
"Sascha Romer",,2020-09-15T00:11:37,,sascharomer@me.com,1,22.00,22.00,CA,Montreal,QC,"H3J 2W9"
"Deb Bijman",,2020-10-19T14:24:01,,deb.bijman@me.com,1,36.16,36.16,CA,Rossmore,ON,"K8N 0L4"
"Sara Janssen",,2020-10-06T00:34:27,,saramichellejanssen@gmail.com,1,56.00,56.00,CA,Winnipeg,MB,"R2J 4K1"
"Leah Mead",,2020-09-24T19:13:17,,leahmariemead@gmail.com,1,23.46,23.46,CA,Langley,BC,"V3A 3S6"
"Eve Gindin",,2020-10-18T02:37:55,,evegindin@me.com,1,35.84,35.84,CA,Winnipeg,MB,"R3P 2E7"
"Carol Vickers",,2020-09-21T04:11:35,,carol@carolvickers.com,1,74.98,74.98,CA,Victoria,BC,"V8V 4L8"
"Liisu Altmaa",,2020-11-06T23:41:44,,altmaaliisu@gmail.com,1,17.92,17.92,CA,"Brentwood Bay",BC,"V8M 1C1"
"Renee Melnyk",,2020-09-06T21:20:35,,rcmelnyk@shaw.ca,2,50.40,25.20,CA,"Sherwood Park",AB,"T8H 2H7"
"Angie Macdonald",,2020-11-07T19:27:49,,angiemacdo@gmail.com,1,17.76,17.76,CA,Martensville,SK,"S0K 0A2"
"Lisa Dodic",,2020-09-18T16:05:22,,lisadudley04@gmail.com,1,61.54,61.54,CA,Richmond,BC,"V7E 3S3"
"Ashely Bell",,2020-11-06T20:26:05,,ash.oo@hotmail.com,1,17.76,17.76,CA,Saskatoon,SK,"S7S 1L5"
"Shannon McNicol",,2020-09-05T18:49:23,,shannonmcnicol@hotmail.com,2,107.52,53.76,CA,Winnipeg,MB,"R3Y 0E3"
"Tanner Hepp",,2020-10-03T12:16:29,,tannerhepp@gmail.com,1,35.84,35.84,CA,Winnipeg,MB,"R3M 1V3"
"Derek Lozinski",,2020-11-06T18:25:36,,dlozinski23@hotmail.com,1,35.52,35.52,CA,Regina,SK,"S4S 1A6"
"Sarah Lindenberg",,2020-10-30T17:32:14,,sarahmarantz@gmail.com,1,20.34,20.34,CA,Toronto,ON,"M5R 1X7"
"Jenna Stephen",,2020-11-13T00:43:18,,jenna_stephen@hotmail.ca,1,71.40,71.40,CA,Edmonton,AB,"T5T 4X3"
"Natalie Rydberg",,2020-10-27T16:08:41,,natalie_ann_@hotmail.com,1,41.38,41.38,CA,Winnipeg,MB,"R2M 5R4"
"Jillian Larock",,2020-11-10T16:34:01,,bjlarock24@gmail.com,1,17.76,17.76,CA,Eatonia,SK,"S0L 0Y0"
"Mollie McLean",,2020-10-25T18:23:36,,molliemclean@hotmail.com,1,33.60,33.60,CA,"Grande Prairie",AB,"T8X 1H1"
"Patricia Griffith",,2020-10-12T03:33:56,,pgriff140@gmail.com,1,35.84,35.84,CA,Winnipeg,MB,"R2M 1Y7"
"Lana McCarthy",,2020-09-16T00:15:55,,lanam@sympatico.ca,1,74.58,74.58,CA,Toronto,ON,"M4E 3G2"
"Jody Robinson",,2020-11-10T12:37:37,,jjjohnson14@hotmail.com,1,47.95,47.95,CA,"Prince Albert",SK,"S6V 8C9"
"Josh Koziebrocki",,2020-10-22T01:15:00,,josh@koziebrockilaw.com,1,58.76,58.76,CA,Toronto,ON,"M6G 2G1"
"Christine Flynn",,2020-10-08T11:56:26,,ann25208@optonline.net,1,30.00,30.00,US,"Hampton bays",NY,11946
"Diane Laurendeau",,2020-09-14T16:00:29,,dianelaurendeau@shaw.ca,3,141.00,47.00,CA,Winnipeg,MB,"R3V 1T4"
"Liz Klippenstein",,2020-10-18T20:59:33,,fearnot@mts.net,1,53.76,53.76,CA,Winnipeg,MB,"R3C 4K5"
"Grace Davis",,2020-10-05T20:04:25,,grace.davis@brentwood.ca,1,73.92,73.92,CA,"Mill Bay",BC,"V0R 2P1"
"Genevieve O'Keefe",,2020-09-24T13:56:54,,Genevieve.okeefe@hotmail.com,1,22.00,22.00,CA,Gatineau,QC,"J8P 3V2"
"Catie Johnston",,2020-10-16T23:41:02,,catie.mm.johnston@gmail.com,1,53.76,53.76,CA,"Île des Chênes",MB,"R0A 0T0"
"Jen De Castro",,2020-11-09T03:59:58,,jenniferesguerra39@yahoo.com,1,15.68,15.68,CA,Winnipeg,MB,"R2X 0G9"
"Ashley McConnell",,2020-11-07T14:41:16,,ashley@humboldtelectric.com,1,17.76,17.76,CA,Saskatoon,SK,"S7T 0W1"
"Catherine Friesen",,2020-09-18T01:19:05,,cathyfries1@gmail.com,1,61.54,61.54,CA,Winnipeg,MB,"R2N 2Y8"
"Breeann Heggie",,2020-11-10T13:37:39,,bnh216@mail.usask.ca,1,63.92,63.92,CA,Saskatoon,SK,"S7T 0G9"
"Heather Jordan",,2020-10-02T09:52:27,,lemonhouse@sympatico.ca,1,153.68,153.68,CA,Barrie,ON,"L4M 3J3"
"karthik Duraisami",,2020-10-15T03:15:00,,karthik.duraisami@gmail.com,1,23.46,23.46,CA,vancouver,BC,"V5K 2M4"
"Kaitlyn Tyschenko",,2020-09-26T22:50:39,,kaitlyntyschenko@gmail.com,0,0.00,0.00,CA,Etobicoke,ON,"M8Y 0A1"
"Jessica Risbey",,2020-09-10T05:15:56,,ja.risbey@gmail.com,1,23.46,23.46,CA,Winnipeg,MB,"R2Y 2H7"
"Jasmine Galey",,2020-11-06T01:18:07,,jasminegaley@hotmail.com,1,71.04,71.04,CA,Regina,SK,"S4X 0P8"
"Jennifer Finateri",,2020-09-30T04:04:26,,jennifer.finateri@gmail.com,1,23.46,23.46,CA,Winnipeg,MB,"R3B 0N8"
"Kylie Benson",,2020-09-28T02:45:57,,kyliebernstein@gmail.com,1,33.60,33.60,CA,Edmonton,AB,"T6H 2C2"
"Jaime Saltz",,2020-09-24T21:11:16,,jaime.saltz@gmail.com,1,84.69,84.69,CA,Toronto,ON,"M6G 2A8"
"Brianna Walls",,2020-09-08T01:34:25,,bwallsy@hotmail.com,1,18.08,18.08,CA,"Sault Ste. Marie",ON,"P6C 6E4"
"Trent Vos",,2020-11-02T02:21:07,,tctvos@gmail.com,1,35.84,35.84,CA,Winnipeg,MB,"R3M 1T8"
"Kaitlyn Tyschenko",,2020-09-27T02:20:04,,kaitlynrtyschenko@gmail.com,1,36.16,36.16,CA,Etobicoke,ON,"M8Y 0A1"
"Evan McIvor",,2020-09-22T18:21:36,,evanmcivor83@gmail.com,1,95.14,95.14,CA,Winnipeg,MB,"R3T 0B1"
"Elaine Clark",,2020-10-30T10:10:45,,elaine.clark1@icloud.com,1,18.08,18.08,CA,"Toronto,",ON,"M1C 3E8"
"Joelle Smart",,2020-11-06T23:45:28,,joellebohn@hotmail.com,1,37.74,37.74,CA,Ebenezer,SK,"S0G 3N0"
"Lorraine Munoz",,2020-09-13T06:12:17,,lgsykes@hotmail.com,1,22.00,22.00,CA,Edmonton,AB,"T6J 0N7"
"Laura Der Sarkisian",,2020-10-26T21:45:37,,lauraderian@hotmail.com,1,36.95,36.95,US,"Los Angeles",CA,90049
"Jocelyn de Moissac",,2020-11-06T20:58:14,,joc@demophotography.com,1,17.76,17.76,CA,Saskatoon,SK,"S7T 0T3"
"Robert Scott Prior",,2020-09-11T22:00:12,,1920rsp@gmail.com,1,59.30,59.30,CA,Vancouver,BC,"V6G 1S1"
"Melissa Howells",,2020-09-05T20:06:25,,meli.howls@gmail.com,1,71.68,71.68,CA,"North Vancouver",BC,"V7M 1G3"
"Scott Dorcas",,2020-10-24T21:13:33,,scott.dorcas@gmail.com,1,73.60,73.60,CA,Moncton,NB,"E1G 2K3"
"Ishia Litzenberger",,2020-10-11T21:36:47,,inmirza@hotmail.com,1,37.74,37.74,CA,Regina,SK,"S4V 0N2"
"Megan Langhorst",,2020-11-10T05:39:32,,meganlanghorst@gmail.com,1,31.96,31.96,CA,Saskatoon,SK,"S7M 4W5"
"Darla Henderson",,2020-09-15T17:16:34,,darla.parkhenderson@gmail.com,1,67.20,67.20,CA,Calgary,AB,"T2M 1P2"
"Jaclyn Chattaway",,2020-09-22T15:04:56,,jaclyn.chattaway@gmail.com,1,23.67,23.67,CA,Ottawa,ON,"K2G 3S9"
"Lynne Wilson",,2020-10-21T02:53:31,,lwilson@mymts.net,1,35.84,35.84,CA,Winnipeg,MB,"R3T 0E5"
"Kim Saito",,2020-11-08T01:26:34,,ksaito790@gmail.com,1,40.32,40.32,CA,Winnipeg,MB,"R2H 1L7"
"Dorothy Vannan",,2020-09-14T03:43:59,,vannan1@me.com,1,129.92,129.92,CA,Winnipeg,MB,"R3P 0S8"
"Robyn Brown",,2020-09-18T23:28:02,,r.brown84@shaw.ca,1,41.38,41.38,CA,Winnipeg,MB,"R3L 1K5"
"Tracy Hannant",,2020-11-10T17:05:41,,t.hannant@accesscomm.ca,1,31.96,31.96,CA,Regina,SK,"S4N 7S1"
"Nicole Rosen",,2020-10-04T18:22:39,,nikkisrosen@gmail.com,1,36.16,36.16,CA,Toronto,ON,"M5N 1M7"
"Lisa Pormeister",,2020-10-16T20:01:35,,lisaandjim@shaw.ca,1,34.00,34.00,CA,Winnipeg,MB,"R3B 0G5"
"Victoria Foxcroft",,2020-11-07T04:39:41,,foxcroftv@hotmail.com,1,16.80,16.80,CA,Whitehorse,YT,"Y1A 7A1"
"Cidnee Lorenz",,2020-09-17T15:49:54,,lcidnee@gmail.com,1,34.60,34.60,CA,Lethbridge,AB,"T1K 6A1"
"Rhonda Darbyshire",,2020-11-06T19:01:41,,rhonda.darbyshire@gmail.com,1,17.76,17.76,CA,Saskatoon,SK,"S7N 4W7"
"Jolene Koenders",,2020-11-10T13:02:57,,jolene.koenders@usask.ca,1,31.96,31.96,CA,Saskatoon,SK,"S7W 0T9"
"Thomas Huet",,2020-10-01T23:08:35,,huet.thomas@gmail.com,1,90.40,90.40,CA,Ottawa,ON,"K1S 5M2"
"Chloe Clarke",,2020-10-15T00:44:53,,chloeclarke247@gmail.com,1,52.50,52.50,CA,Wetaskiwin,AB,"T9A 3H5"
"Heather Watson",,2020-09-29T12:16:58,,heather.watson8@gmail.com,1,32.95,32.95,US,Troy,NY,12180
"Kendra Sullivan",,2020-09-26T20:21:18,,kendrasullivan88@gmail.com,1,23.67,23.67,CA,Toronto,ON,"M5V 3Y9"
"Krysta Lafantaisie",,2020-09-09T20:09:37,,krystadawn09@gmail.com,1,59.30,59.30,CA,Landmark,MB,"R0A 0X0"
"Linda Flock",,2020-09-27T23:45:14,,linda.flock@gmail.com,1,50.40,50.40,CA,Calgary,AB,"T2T 2M2"
"Karen Niedzwiecki",,2020-09-24T15:30:13,,karen.niedz@gmail.com,1,59.30,59.30,CA,Winnipeg,MB,"R3R 2G1"
"Marie Stow",,2020-11-01T17:58:54,,mariestow@icloud.com,1,16.80,16.80,CA,Westmount,QC,"H3Z 1W3"
"Evangeline Andico",,2020-09-07T23:56:45,,vangieandico@gmail.com,1,17.92,17.92,CA,Winnipeg,MB,"R3E 2L6"
"Kimberly Mercury",,2020-11-01T22:19:37,,kmercury@icloud.com,1,56.00,56.00,CA,Winnipeg,MB,"R3P 0J9"
"Daniela Musarella-Kelley",,2020-10-30T01:36:24,,danielawho@gmail.com,1,18.08,18.08,CA,Toronto,ON,"M6P 0B3"
"Stephanie Byron",,2020-11-06T23:36:20,,Stephanie.byron@hotmail.com,1,18.08,18.08,CA,Newmarket,ON,"L3X 3H6"
"Shubir Shaikh",,2020-10-13T08:32:22,,shubir@live.com,1,33.60,33.60,CA,Calgary,AB,"T3G 5V5"
"frankie ray",,2020-11-02T23:27:14,,frankier.0927@edu.gppsd.ab.ca,1,33.60,33.60,CA,"Grande Prairie",AB,"T8V 3B2"
"Melissa Donadio",,2020-09-08T15:39:45,,melissa.donadio@rogers.com,1,41.75,41.75,CA,Toronto,ON,"M5P 0A1"
"Michelle Meyer",,2020-10-07T17:03:53,,xomichey@yahoo.ca,1,36.16,36.16,CA,Brantford,ON,"N3T 2N7"
"Carla Mulligan",,2020-09-25T19:55:42,,clairemariesaphir@gmail.com,2,94.08,47.04,CA,Winnipeg,MB,"R3R 3P5"
"Nancy Quiring",,2020-09-18T18:41:57,,nancyq222@msn.com,2,81.70,40.85,CA,Winnipeg,MB,"R3Y 0H6"
"Katherine Kubik",,2020-11-15T03:47:38,,katkubik15@gmail.com,1,59.30,59.30,CA,Winnipeg,MB,"R3X 0K2"
"Oksana Semotiuk",,2020-09-27T18:51:16,,oksanasemotiuk@hotmail.com,1,35.84,35.84,CA,Winnipeg,MB,"R3P 0G3"
"Jel Unger",,2020-11-10T05:54:48,,jelienne.unger@gmail.com,1,29.97,29.97,CA,"Swift Current",SK,"S9H 4W9"
"Gary Shnier",,2020-10-30T21:57:48,,gary@imperialflooring.ca,1,35.84,35.84,CA,Winnipeg,MB,"R3P 2E4"
"Jessica Knoop",,2020-11-13T02:30:31,,jessicad133@hotmail.com,0,0.00,0.00,CA,Saskatoon,SK,"S7W 0L5"
"Gwendolyn Janzen",,2020-11-08T05:17:15,,gjjanzen@yahoo.ca,1,35.84,35.84,CA,"Plum Coulee",MB,"R0G 1R0"
"Annie Lei",,2020-10-28T00:50:18,,alei@shaw.ca,1,67.20,67.20,CA,Edmonton,AB,"T5T 4G3"
"Jesslyn Maurier",,2020-09-06T02:25:19,,jesslyn144@hotmail.com,1,54.24,54.24,CA,Toronto,ON,"M4P 2B1"
"Haley Miller",,2020-11-07T10:41:11,,haley.millerc@gmail.com,1,35.52,35.52,CA,Regina,SK,"S4S 1B1"
"Lia Fricano",,2020-09-16T02:54:57,,lia.fricano@live.com,1,41.75,41.75,CA,"south porcupine",ON,"P0N 1H0"
"Marcia Fifer",,2020-09-14T19:23:30,,yardsale@mts.net,1,114.24,114.24,CA,Winnipeg,MB,"R3N 1A1"
"Kelsey Schick",,2020-11-06T23:25:19,,Schick.kelsey@gmail.com,1,17.76,17.76,CA,Saskatoon,SK,"S7M 0A8"
"Karen Aptekar",,2020-10-17T19:50:06,,karen@notjustperfume.com,1,64.00,64.00,US,Bellaire,TX,77401
"Lise Jagoe",,2020-11-06T19:40:55,,lisejagoe@gmail.com,1,17.76,17.76,CA,Saskatoon,SK,"S7J 4J6"
"Elene Sgouromitis",,2020-10-15T03:50:33,,leni6@yahoo.com,1,36.16,36.16,CA,Toronto,ON,"M6E 3X5"
"Marnie Goldstein",,2020-11-06T12:18:33,,goldsteinmarnie@gmail.com,1,56.50,56.50,CA,"North York",ON,"M5M 2W6"
"Jennifer Thiessen",,2020-09-10T14:10:34,,jbthiessen@me.com,1,39.14,39.14,CA,Winnipeg,MB,"R3P 0B5"
"Rachel Kohler",,2020-10-09T05:16:37,,kohlerach@hotmail.com,1,23.67,23.67,CA,Fergus,ON,"N1M 3M9"
"Kara Kehler",,2020-09-27T01:11:43,,karadkehler@gmail.com,1,23.46,23.46,CA,"La Broquerie",MB,"R0A 0W0"
"Mel Scheidl",,2020-11-11T14:52:11,,md.scheidl@gmail.com,1,32.26,32.26,CA,Saskatoon,MB,"S7V 0N9"
"Rachelle Lagasse",,2020-09-12T23:07:41,,rlagasse@mymts.net,1,25.70,25.70,CA,St.Adolphe,MB,"R5A 1B1"
"Elizabeth Sherlock",,2020-10-06T23:50:54,,esherlock@blumetric.ca,1,36.16,36.16,CA,Sudbury,ON,"P3B 0E8"
"Rylee Beznoska",,2020-11-10T14:40:47,,ryleebeznoska@gmail.com,1,31.97,31.97,CA,Delisle,SK,"S0L 0P0"
"Brenlee Carrington Trepel",,2020-10-03T08:50:38,,brenlee@trepel.ca,1,40.32,40.32,CA,Winnipeg,MB,"R3M 0A7"
"Michelle Bonislawski",,2020-10-24T18:24:48,,michellex@gmail.com,1,56.00,56.00,CA,Vancouver,BC,"V6B 6A8"
"Eva Stulberg",,2020-09-11T20:21:59,,stulberg.e@gmail.com,1,43.62,43.62,CA,Vancouver,BC,"V5Z 3E5"
"Natalie Marjanovic",,2020-09-22T20:55:59,,natmarjanovic@hotmail.com,1,57.57,57.57,CA,Mississauga,ON,"L4Y 2P8"
"Jordan Morlock",,2020-11-10T06:42:12,,jordanmorlock@hotmail.com,1,15.98,15.98,CA,Saskatoon,SK,"S7W 0L5"
"Courtney Murgatroyd",,2020-09-22T02:42:40,,courtney@webberisland.com,2,186.39,93.20,CA,Minesing,ON,"L9X 0H8"
"Courtney Weinstein",,2020-10-01T01:54:35,,courtney.weinstein12@gmail.com,1,35.84,35.84,CA,Winnipeg,MB,"R3P 0K3"
"Angela Epp",,2020-10-20T13:06:02,,angelamepp@gmail.com,1,35.84,35.84,CA,Winnipeg,MB,"R2G 3L9"
"Emily Fan",,2020-11-16T18:36:19,,emilycfan@gmail.com,1,106.22,106.22,CA,Toronto,ON,"M5S 1M8"
"Jessenia Fleming",,2020-09-07T03:33:24,,jesseniafleming@outlook.com,1,17.92,17.92,CA,Winniprg,MB,"R2L 0H5"
"Jacalyn Benjaminson",,2020-11-07T21:22:47,,jacalynnieman@gmail.com,1,33.30,33.30,CA,Coleville,SK,"S0L 0K0"
"Kylie Case",,2020-10-27T16:04:09,,kyliecase4@hotmail.com,1,52.58,52.58,CA,Winnipeg,MB,"R2Y 1B1"
"Erin Wischlinski",,2020-09-15T22:18:06,,erin.evodog@gmail.com,1,22.00,22.00,CA,Edmonton,AB,"T5X 1M1"
"Caroline Greham",,2020-09-14T13:27:23,,cgreham@rogers.com,1,21.41,21.41,CA,London,ON,"N6H 5J3"
"Alyshia Rae",,2020-11-06T22:17:21,,alyshiarae@sasktel.net,1,35.52,35.52,CA,Estevan,SK,"S4A 1G2"
"Nancy Hall",,2020-10-16T22:45:24,,lovelee_83@hotmail.com,1,34.60,34.60,CA,Calgary,AB,"T2J 2N4"
"Jessica Kletke",,2020-11-06T19:22:40,,jkletke@crossmount.ca,1,113.22,113.22,CA,Saskatoon,SK,"S7K 0N4"
"Adriana DiMaggio",,2020-10-15T01:48:22,,adriana-fimaggio@live.ca,1,35.84,35.84,CA,Winnipeg,MB,"R3N 1Z2"
"Maria Infantino",,2020-11-04T19:22:36,,maria_infantino@hotmail.com,1,143.36,143.36,CA,"West St. Paul",MB,"R4A 0B2"
"Hailey Crofts",,2020-09-09T23:18:46,,haileycrofts@gmail.com,1,38.80,38.80,CA,"Sylvan lake",AB,"T4S 0C3"
"Jerry Rubin",,2020-10-08T21:23:20,,jerryrubinartwork@gmail.com,2,125.44,62.72,CA,Winnipeg,MB,"R2V 3S3"
"Kayla Hamilton",,2020-11-06T18:42:20,,kaylahamilton1@hotmail.com,1,17.76,17.76,CA,Saskatoon,SK,"S7T 0R1"
"Lyndsay Knorr",,2020-11-03T20:19:21,,knorrlyndsay7@gmail.com,1,42.18,42.18,CA,Saskatoon,SK,"S7K 6T4"
"Jena Gaspur",,2020-09-06T03:12:11,,jenagaspur@hotmail.com,1,53.76,53.76,CA,"East St. Paul",MB,"R2E 0B2"
"Chantelle Gauthier",,2020-09-26T21:19:56,,chantelle.gauthier@gmail.com,1,53.76,53.76,CA,Niverville,MB,"R0A 0A2"
"Vanessa Reber",,2020-09-29T14:13:56,,vanessa_reber@hotmail.com,1,49.72,49.72,CA,Toronto,ON,"M6J 3J3"
"Diana Hong",,2020-09-12T20:20:12,,hong.diana@gmail.com,1,23.67,23.67,CA,Pickering,ON,"L1V 1P4"
"Leah Mead",,2020-09-24T19:13:17,,leahmariemead@gmail.com,1,23.46,23.46,CA,Langley,BC,"V3A 3S6"
"Greta Wilson",,2020-09-11T17:29:44,,greta949@shaw.ca,1,23.67,23.67,CA,"Sault Ste. Marie, ON",ON,"P6B 6K4"
"Sarah Sleep",,2020-10-09T17:46:47,,sarah_7876@hotmail.com,1,80.64,80.64,CA,Whitby,MB,"L1R 3M5"
"Angie Macdonald",,2020-11-07T19:27:49,,angiemacdo@gmail.com,1,17.76,17.76,CA,Martensville,SK,"S0K 0A2"
"Ashkey Shewchuk",,2020-11-14T21:04:33,,ashleyvogelsang07@hotmail.com,1,23.25,23.25,CA,Saskatoon,SK,"S7V 0G2"
"Diana Hazell",,2020-09-17T02:20:29,,diana.mvhazell@gmail.com,1,41.75,41.75,CA,Oakville,ON,"L6M 1P5"
"Nicole Ingram",,2020-11-10T14:46:13,,ingramn_12@hotmail.com,1,15.98,15.98,CA,Warman,SK,"S0K 4S2"
"Navina Atwal",,2020-10-30T17:05:10,,navina.atwal@gmail.com,1,72.32,72.32,CA,Kleinburg,ON,"L0J 1C0"
"Erin Burke",,2020-10-24T19:11:26,,erinaburke@gmail.com,1,24.09,24.09,CA,"Mill Village",NS,"B0J 2H0"
"Tanner Hepp",,2020-10-03T12:16:29,,tannerhepp@gmail.com,1,35.84,35.84,CA,Winnipeg,MB,"R3M 1V3"
"Samantha Wood",,2020-11-12T23:37:02,,samantha.wood@live.ca,1,32.26,32.26,CA,Winnipeg,MB,"R3P 0T8"
"Renee Schuler",,2020-11-06T18:30:24,,renee.schuler@spiritsd.ca,1,17.76,17.76,CA,Saskatoon,SK,"S7N 0J3"
"Sarah Blazon",,2020-09-07T13:15:39,,sarahkcb@icloud.com,1,18.08,18.08,CA,Waterloo,ON,"N2V 2H9"
"Tanja Fardy",,2020-10-13T22:25:18,,t.g@shaw.ca,1,58.24,58.24,CA,Winnipeg,MB,"R2M 0V8"
"Sarah Dawson",,2020-11-03T02:50:10,,sarahdawson@shaw.ca,1,35.84,35.84,CA,Winnipeg,MB,"R3T 2Y2"
"Laura Levine",,2020-09-05T23:02:10,,lauraflevine@gmail.com,1,56.50,56.50,CA,Toronto,ON,"M6G 2K3"
"Jacob Hicks",,2020-09-29T05:05:47,,hicksjf@bc.edu,0,0.00,0.00,US,Medford,MA,02155
"Edyta Cimera",,2020-09-12T15:34:02,,helloedi@hotmail.com,1,53.05,53.05,CA,Mississauga,ON,"L5L 3A3"
"Genevieve O'Keefe",,2020-09-24T13:56:54,,Genevieve.okeefe@hotmail.com,1,22.00,22.00,CA,Gatineau,QC,"J8P 3V2"
"Tiffani Herbert",,2020-09-27T23:17:48,,tiffiwiffi@gmail.com,1,36.16,36.16,CA,Bolton,ON,"L7E 2L1"
"Jodie Suitor",,2020-09-11T14:48:02,,jodiesuitor@gmail.com,2,203.70,101.85,CA,Calgary,AB,"T3H 4J6"
"Jen De Castro",,2020-11-09T03:59:58,,jenniferesguerra39@yahoo.com,1,15.68,15.68,CA,Winnipeg,MB,"R2X 0G9"
"Jessica Risbey",,2020-09-10T05:15:56,,ja.risbey@gmail.com,1,23.46,23.46,CA,Winnipeg,MB,"R2Y 2H7"
"Alana Morton",,2020-10-09T02:26:07,,amorton@mymts.net,1,53.76,53.76,CA,Winnipeg,MB,"R3Y 1R5"
"Sherilyn Ochitwa",,2020-11-10T23:27:55,,ksochitwa@gmail.com,1,15.98,15.98,CA,Saskatoon,SK,"S7H 3B2"
"Jodi Copeland",,2020-11-07T17:16:00,,copeland.jodi@gmail.com,1,17.92,17.92,CA,Saskatoon,MB,"S7W 0J3"
"Brianna Walls",,2020-09-08T01:34:25,,bwallsy@hotmail.com,1,18.08,18.08,CA,"Sault Ste. Marie",ON,"P6C 6E4"
"Shannon Card",,2020-10-06T10:28:28,,shannonmcard@gmail.com,1,56.50,56.50,CA,Guelph,ON,"N1H 7X5"
"Erin Hupaelo",,2020-11-14T00:51:27,,erinh101@hotmail.com,1,41.01,41.01,CA,Saskatoon,SK,"S7T 0L8"
"Michelle Lee",,2020-09-16T23:38:15,,lee.michellelouise@gmail.com,1,23.67,23.67,CA,"North York",ON,"M2N 7K3"
"Sarah Fahlman",,2020-11-10T14:11:08,,sarahkotyk@gmail.com,1,31.96,31.96,CA,Saskatoon,SK,"S7K 6N7"
"Elaine Clark",,2020-10-30T10:10:45,,elaine.clark1@icloud.com,1,18.08,18.08,CA,"Toronto,",ON,"M1C 3E8"
"Ashleigh Reznick",,2020-10-02T22:41:16,,reznickashleigh@gmail.com,1,92.66,92.66,CA,Toronto,ON,"M6C 3W2"
"Julianne Tabata",,2020-11-12T00:19:42,,julie273@hotmail.com,1,39.49,39.49,CA,Toronto,ON,"M4L 2A2"
"Joelle Smart",,2020-11-06T23:45:28,,joellebohn@hotmail.com,1,37.74,37.74,CA,Ebenezer,SK,"S0G 3N0"
"Lindsay Dennett",,2020-11-10T06:10:24,,lddennett@gmail.com,1,33.96,33.96,CA,Beauval,SK,"S0M 0G0"
"Rebecca Mayville",,2020-09-21T14:01:45,,rebecca.mayville@gmail.com,1,68.87,68.87,CA,Killaloe,ON,"K0J 2A0"
"Laura Der Sarkisian",,2020-10-26T21:45:37,,lauraderian@hotmail.com,1,36.95,36.95,US,"Los Angeles",CA,90049
"Leanne Todd",,2020-10-20T02:43:50,,leanne.todd@hotmail.com,1,123.90,123.90,CA,Calgary,AB,"T3H 5P5"
"Ainsley Bell",,2020-09-30T23:35:43,,abell@winebc.com,1,35.84,35.84,CA,Kelowna,BC,"V1V 1N3"
"Jocelyn de Moissac",,2020-11-06T20:58:14,,joc@demophotography.com,1,17.76,17.76,CA,Saskatoon,SK,"S7T 0T3"
"Gail Souter",,2020-09-18T16:15:29,,gail@becktaxi.com,1,128.82,128.82,CA,Toronto,ON,"M3A 1X4"
"Melissa Howells",,2020-09-05T20:06:25,,meli.howls@gmail.com,1,71.68,71.68,CA,"North Vancouver",BC,"V7M 1G3"
"Rebekah Ederer",,2020-09-13T21:41:51,,rebekahederer.re@gmail.com,1,90.40,90.40,CA,"North Bay",ON,"P1B 8Y8"
"Carrie Hooper",,2020-11-10T14:50:35,,eldonhooper@sasktel.net,1,111.88,111.88,CA,"Hudson Bay",SK,"S0E 0Y0"
"Sarah Lindenberg",,2020-10-30T17:32:14,,sarahmarantz@gmail.com,1,20.34,20.34,CA,Toronto,ON,"M5R 1X7"
"Lynne Wilson",,2020-10-21T02:53:31,,lwilson@mymts.net,1,35.84,35.84,CA,Winnipeg,MB,"R3T 0E5"
"Jaclyn Chattaway",,2020-09-22T15:04:56,,jaclyn.chattaway@gmail.com,1,23.67,23.67,CA,Ottawa,ON,"K2G 3S9"
"Leah Coulter",,2020-10-14T05:28:45,,leahmcoulter@gmail.com,1,49.28,49.28,CA,"North Vancouver",BC,"V7L 1C5"
"Rebekah Ederer",,2020-09-13T21:41:51,,rebekahederer.re@gmail.com,1,90.40,90.40,CA,"North Bay",ON,"P1B 8Y8"
"Robyn Brown",,2020-09-18T23:28:02,,r.brown84@shaw.ca,1,41.38,41.38,CA,Winnipeg,MB,"R3L 1K5"
"Nicole Rosen",,2020-10-04T18:22:39,,nikkisrosen@gmail.com,1,36.16,36.16,CA,Toronto,ON,"M5N 1M7"
"Lori M Bamber",,2020-10-12T17:02:46,,loribamber@gmail.com,1,35.84,35.84,CA,Vancouver,BC,"V6G 1E3"
"RonniLyn Pustil",,2020-09-16T01:37:15,,ronnilynp@gmail.com,1,149.16,149.16,CA,Toronto,ON,"M6G 2K6"
"Cidnee Lorenz",,2020-09-17T15:49:54,,lcidnee@gmail.com,1,34.60,34.60,CA,Lethbridge,AB,"T1K 6A1"
"Thomas Huet",,2020-10-01T23:08:35,,huet.thomas@gmail.com,1,90.40,90.40,CA,Ottawa,ON,"K1S 5M2"
"Krysta Lafantaisie",,2020-09-09T20:09:37,,krystadawn09@gmail.com,1,59.30,59.30,CA,Landmark,MB,"R0A 0X0"
"Tiia Birkenbaum",,2020-09-11T01:25:23,,tiia.birkenbaum@gmail.com,1,37.23,37.23,CA,Toronto,ON,"M6C 2V1"
"Anne-Marie Turmel",,2020-10-08T16:14:36,,veganne@hotmail.com,1,168.00,168.00,CA,Montreal,QC,"H4H 1Z8"
"Ivan Burke",,2020-09-07T19:53:31,,ivanburke1@gmail.com,2,59.30,29.65,CA,Winnipeg,MB,"R2H 2M6"
"Mary Karam",,2020-09-14T17:34:41,,carol.karam@lei.ca,1,44.01,44.01,CA,brampton,ON,"L6Z 3M8"
"Kendra Sullivan",,2020-09-26T20:21:18,,kendrasullivan88@gmail.com,1,23.67,23.67,CA,Toronto,ON,"M5V 3Y9"
"Heather Watson",,2020-09-29T12:16:58,,heather.watson8@gmail.com,1,32.95,32.95,US,Troy,NY,12180
"Marie L. Georges",,2020-11-16T00:45:32,,tissa16@hotmail.com,1,52.50,52.50,CA,Laval,QC,"H7M 5Y7"
"Evangeline Andico",,2020-09-07T23:56:45,,vangieandico@gmail.com,1,17.92,17.92,CA,Winnipeg,MB,"R3E 2L6"
"Janice Prazoff",,2020-09-06T05:24:05,,jass89@hotmail.com,1,36.16,36.16,CA,Toronto,ON,"M6C 1M7"
"Karen Niedzwiecki",,2020-09-24T15:30:13,,karen.niedz@gmail.com,1,59.30,59.30,CA,Winnipeg,MB,"R3R 2G1"
"Linda Flock",,2020-09-27T23:45:14,,linda.flock@gmail.com,1,50.40,50.40,CA,Calgary,AB,"T2T 2M2"
"Danee Haines",,2020-11-13T20:34:11,,daneelalonde@sasktel.net,1,58.77,58.77,CA,Arborfield,SK,"S0E 0A0"
"Pamela Kowall",,2020-09-05T07:49:59,,sarahbaileigh@gmail.com,1,17.92,17.92,CA,Winnipeg,MB,"R2V 0E7"
"Courtney Clarke",,2020-11-10T05:02:34,,cclarke@live.ca,1,31.97,31.97,CA,Saskatoon,SK,"S7K 3J8"
"Shawn Mooney",,2020-11-06T01:30:13,,me@shawnmooney.com,1,33.60,33.60,CA,Airdrie,AB,"T4B 3R7"
"Jennifer Nakonechny",,2020-11-11T16:24:48,,janakonechny@hotmail.com,1,15.98,15.98,CA,Saskatoon,SK,"S7J 4J6"
"Stephanie Lepp",,2020-11-10T23:46:45,,lepp.stephanie@gmail.com,1,15.98,15.98,CA,Saskatoon,SK,"S7V 1C2"
"Kirbie Schnitzler",,2020-11-07T18:00:27,,kirbie.schnitzler@outlook.com,1,35.52,35.52,CA,Saskatoon,SK,"S7H 3E1"
"Saniza Mohammed",,2020-11-02T02:59:38,,saniza101@gmail.com,1,53.76,53.76,CA,Winnipeg,MB,"R2X 0E9"
"Tessa Ermel",,2020-11-10T14:29:24,,tessa.ermel@gmail.com,1,17.76,17.76,CA,Saskatoon,SK,"S7J 2R7"
"Jocelyn Advent",,2020-10-30T13:04:56,,jocelynadvent@hotmail.com,1,38.08,38.08,CA,Winnipeg,MB,"R2H 0X6"
"Kayla Spray",,2020-11-10T06:18:58,,kayla.spray@gmail.com,1,49.94,49.94,CA,Kelvington,SK,"S0A 1W0"
"Stephanie Young",,2020-11-07T00:08:50,,stephaniecaryl89@gmail.com,1,50.00,50.00,US,"Jamaica Plain",MA,02130
"Caley Ostrowski",,2020-11-16T12:36:33,,caleyscheidt@hotmail.com,1,41.38,41.38,CA,Major,MB,"S0L 2H0"
"Morganna Malyon",,2020-10-26T23:25:07,,morgannamalyon@gmail.com,1,59.30,59.30,CA,Brandon,MB,"R7B 4A1"
"Crystal Bennett",,2020-11-06T21:03:48,,clrbennett@gmail.com,1,71.68,71.68,CA,Winnipeg,MB,"R3L 1K4"
"Scott Dorcas",,2020-10-24T21:13:33,,scott.dorcas@gmail.com,1,73.60,73.60,CA,Moncton,NB,"E1G 2K3"
"Elizabeth Moreau",,2020-09-13T15:41:30,,elizabethm@cps.ca,1,41.75,41.75,CA,Ottawa,ON,"K1T 3L7"
"Kerry Levins",,2020-09-17T06:15:00,,kerry.levins@gmail.com,1,59.30,59.30,CA,Ladner,BC,"V4K 1P7"
"Nancy Quiring",,2020-09-18T18:41:57,,nancyq222@msn.com,2,81.70,40.85,CA,Winnipeg,MB,"R3Y 0H6"
"Liz Rampersad",,2020-10-04T15:19:38,,lizrampersad15@gmail.com,1,21.41,21.41,CA,"Terrace Bay",ON,"P0T 2W0"
"Michelle Harvey",,2020-09-10T23:49:51,,orange_3@hotmail.com,1,23.25,23.25,CA,Regina,SK,"S4S 4X7"
"Abbee Corb",,2020-09-11T23:41:23,,abbeecorb@me.com,1,25.93,25.93,CA,Burlington,ON,"L7M 0B4"
"Horacio Gomez",,2020-10-12T00:33:16,,lacho_50@hotmail.com,1,144.42,144.42,MX,Orizaba,VE,94300
"Peggy Rockwell",,2020-09-15T22:00:09,,peggyrockwell@hotmail.ca,1,56.29,56.29,CA,Bedford,NS,"B4A 1K4"
"Devin Patterson",,2020-10-01T19:58:05,,devinpatterson@live.ca,1,24.09,24.09,CA,Fredericton,NB,"E3B 2G2"
"Jenni Presber",,2020-09-08T22:55:58,,jenpresber@gmail.com,1,41.38,41.38,CA,Winnipeg,MB,"R2K 3C3"
"Robyn Paton",,2020-10-19T13:50:17,,robyn@robynpaton.com,1,54.24,54.24,CA,Ottawa,ON,"K1Y 2E9"
"katherine penner",,2020-09-27T23:57:44,,katherine.penner@gvsd.ca,1,56.00,56.00,CA,winkler,MB,"R6W 1M5"
"Kara Kehler",,2020-09-27T01:11:43,,karadkehler@gmail.com,1,23.46,23.46,CA,"La Broquerie",MB,"R0A 0W0"
"Jennifer Thiessen",,2020-09-10T14:10:34,,jbthiessen@me.com,1,39.14,39.14,CA,Winnipeg,MB,"R3P 0B5"
"Rachel Kohler",,2020-10-09T05:16:37,,kohlerach@hotmail.com,1,23.67,23.67,CA,Fergus,ON,"N1M 3M9"
"Mel Scheidl",,2020-11-11T14:52:11,,md.scheidl@gmail.com,1,32.26,32.26,CA,Saskatoon,MB,"S7V 0N9"
"Joella Klein",,2020-09-06T17:59:30,,joella.klein1@gmail.com,1,17.76,17.76,CA,Regina,SK,"S4V 0N7"
"Elizabeth Sherlock",,2020-10-06T23:50:54,,esherlock@blumetric.ca,1,36.16,36.16,CA,Sudbury,ON,"P3B 0E8"
"Rylee Beznoska",,2020-11-10T14:40:47,,ryleebeznoska@gmail.com,1,31.97,31.97,CA,Delisle,SK,"S0L 0P0"
"Jordace Hoschka",,2020-11-14T15:53:33,,jordie159@gmail.com,1,41.38,41.38,CA,"Langley City",BC,"V2Z 1H2"
"Brenlee Carrington Trepel",,2020-10-03T08:50:38,,brenlee@trepel.ca,1,40.32,40.32,CA,Winnipeg,MB,"R3M 0A7"
"Natalie Marjanovic",,2020-09-22T20:55:59,,natmarjanovic@hotmail.com,1,57.57,57.57,CA,Mississauga,ON,"L4Y 2P8"
"Jackie Washenfelder",,2020-11-10T05:22:26,,jackie.washenfelder@gmail.com,1,33.96,33.96,CA,YORKTON,SK,"S3N 2R5"
"Alexis Jessiman",,2020-09-05T15:51:41,,aejessiman@gmail.com,2,520.80,260.40,CA,Winnipeg,MB,"R3M 0J4"
"Dani Pugh",,2020-11-06T18:17:06,,danimochoruk@hotmail.com,1,17.76,17.76,CA,Saskatoon,SK,"S7S 1M7"
"Jordan Morlock",,2020-11-10T06:42:12,,jordanmorlock@hotmail.com,1,15.98,15.98,CA,Saskatoon,SK,"S7W 0L5"
"Sid Lerner",,2020-11-12T04:42:04,,sid.lerner@mbpc-cpmb.ca,1,150.08,150.08,CA,Winnipeg,MB,"R3P 0G4"
"Courtney Murgatroyd",,2020-09-22T02:42:40,,courtney@webberisland.com,2,186.39,93.20,CA,Minesing,ON,"L9X 0H8"
"Courtney Weinstein",,2020-10-01T01:54:35,,courtney.weinstein12@gmail.com,1,35.84,35.84,CA,Winnipeg,MB,"R3P 0K3"
"Stephanie Massicotte",,2020-11-07T20:59:58,,stephanie.massicotte@bellmedia.ca,1,35.52,35.52,CA,Saskatoon,SK,"S7M 5M9"
"Vicki Flynn",,2020-09-13T16:52:01,,vflynn7@yahoo.ca,2,170.24,85.12,CA,Winnipeg,MB,"R3Y 0G6"
"Cara Holeha",,2020-11-06T21:19:06,,cara.humphrey@hotmail.com,1,35.52,35.52,CA,Clavet,SK,"S0K 0Y0"
"Ayli Klein",,2020-10-25T17:54:17,,ayli.klein@gmail.com,2,109.76,54.88,CA,Winnipeg,MB,"R3Y 1L5"
"Kayla Daniels",,2020-10-16T14:21:58,,danielskayla98@gmail.com,1,36.16,36.16,CA,Thornhill,ON,"L4J 8H1"
"Tracy kadolph",,2020-09-12T00:26:42,,kadolph12@gmail.com,1,23.46,23.46,CA,Winnipeg,MB,"R3J 0X2"
"Katelyn Kurtz",,2020-10-28T05:00:33,,katiekurtz14@hotmail.com,1,71.68,71.68,CA,Winnipeg,MB,"R3K 1Y7"
"Merrill Moskal",,2020-10-21T15:38:53,,merrillmoskal@me.com,1,38.08,38.08,CA,WINNIPEG,MB,"R3S 1A5"
"Christene Ostapczuk",,2020-09-29T02:50:29,,gawlik@shaw.ca,0,0.00,0.00,CA,Winnipeg,MB,"R3H 1C2"
"Patricia Popert-Fortier",,2020-09-27T21:03:09,,patriciapopert@gmail.com,1,33.60,33.60,CA,Dorval,QC,"H9S 3N3"
"Chantelle Gauthier",,2020-09-26T21:19:56,,chantelle.gauthier@gmail.com,1,53.76,53.76,CA,Niverville,MB,"R0A 0A2"
"Hailey Crofts",,2020-09-09T23:18:46,,haileycrofts@gmail.com,1,38.80,38.80,CA,"Sylvan lake",AB,"T4S 0C3"
"Jerry Rubin",,2020-10-08T21:23:20,,jerryrubinartwork@gmail.com,2,125.44,62.72,CA,Winnipeg,MB,"R2V 3S3"
"Carlyng Wheng",,2020-11-10T21:35:42,,carlyngwhenham@gmail.com,1,15.98,15.98,CA,Saskatoon,SK,"S7V 0M1"
"Leah Mead",,2020-09-24T19:13:17,,leahmariemead@gmail.com,1,23.46,23.46,CA,Langley,BC,"V3A 3S6"
"Andrea Coukell",,2020-09-08T01:22:53,,andreac007@yahoo.ca,1,53.76,53.76,CA,Winkler,MB,"R6W 0A4"
"Paul Girdlestone",,2020-09-06T14:31:22,,girdlestone@shaw.ca,1,35.84,35.84,CA,Winnipeg,MB,"R3T 2M2"
"Sara Janssen",,2020-10-06T00:34:27,,saramichellejanssen@gmail.com,1,56.00,56.00,CA,Winnipeg,MB,"R2J 4K1"
"Arisha Briggs",,2020-11-10T14:03:06,,arisha.moen@gmail.com,1,47.94,47.94,CA,Unity,SK,"S0K 4L0"
"Sarah Steiner",,2020-11-13T23:43:38,,srh.stnr@gmail.com,1,41.75,41.75,CA,Waterloo,ON,"N2L 1E1"
"Ricki Hall",,2020-10-02T16:14:39,,rhall@msd.ca,1,49.28,49.28,CA,Winnipeg,MB,"R2Y 2C9"
"Rachel Goldgut",,2020-09-05T13:18:12,,rachelgoldgut@gmail.com,1,90.40,90.40,CA,"North York",ON,"M5N 1X2"
"Brittany Caffet",,2020-11-06T18:10:22,,bcaffet@rawlco.com,1,35.52,35.52,CA,Warman,SK,"S0K 4S2"
"Alison Guenette",,2020-11-11T21:49:41,,aguenette1127@gmail.com,1,72.32,72.32,CA,Sydenham,ON,"K0H 2T0"
"Carol Vickers",,2020-09-21T04:11:35,,carol@carolvickers.com,1,74.98,74.98,CA,Victoria,BC,"V8V 4L8"
"Michelle Pollock-Kohn",,2020-09-30T14:57:49,,mpollockkohn@shaw.ca,1,136.64,136.64,CA,Winnipeg,MB,"R3P 1W7"
"Angie Macdonald",,2020-11-07T19:27:49,,angiemacdo@gmail.com,1,17.76,17.76,CA,Martensville,SK,"S0K 0A2"
"Lisa Dodic",,2020-09-18T16:05:22,,lisadudley04@gmail.com,1,61.54,61.54,CA,Richmond,BC,"V7E 3S3"
"Diana Hazell",,2020-09-17T02:20:29,,diana.mvhazell@gmail.com,1,41.75,41.75,CA,Oakville,ON,"L6M 1P5"
"Robert Scott Prior",,2020-09-11T22:00:12,,1920rsp@gmail.com,1,59.30,59.30,CA,Vancouver,BC,"V6G 1S1"
"Natalie Rydberg",,2020-10-27T16:08:41,,natalie_ann_@hotmail.com,1,41.38,41.38,CA,Winnipeg,MB,"R2M 5R4"
"Brittany Sommer",,2020-11-10T05:23:25,,sommerbrittany@gmail.com,1,34.02,34.02,CA,Camrose,AB,"T4V 3W5"
"judith kimel",,2020-09-23T13:28:06,,judith.kimel@utoronto.ca,1,30.45,30.45,CA,toronto,ON,"M6G 2X2"
"Jenna Stephen",,2020-11-13T00:43:18,,jenna_stephen@hotmail.ca,1,71.40,71.40,CA,Edmonton,AB,"T5T 4X3"
"Lin Goldberg",,2020-09-27T14:15:32,,linnyg@rogers.com,1,90.40,90.40,CA,Toronto,ON,"M6C 0A8"
"Joanna Krispin",,2020-10-11T00:54:51,,jkrispin@student.concordia.ab.ca,2,44.00,22.00,CA,Edmonton,AB,"T6C 1M5"
"Carla Thorel",,2020-11-10T11:41:29,,cthorel@outlook.com,1,31.96,31.96,CA,Saskatoon,SK,"S7K 2M7"
"Sarah Blazon",,2020-09-07T13:15:39,,sarahkcb@icloud.com,1,18.08,18.08,CA,Waterloo,ON,"N2V 2H9"
"Susan Letwin",,2020-11-07T23:28:49,,jsletwin@rogers.com,1,72.32,72.32,CA,Brantford,ON,"N3R 6M1"
"Elizabeth Snowdon",,2020-10-07T22:16:25,,elizabeth_snowdon@hotmail.com,1,56.00,56.00,CA,Vancouver,BC,"V5T 4N7"
"Laura Levine",,2020-09-05T23:02:10,,lauraflevine@gmail.com,1,56.50,56.50,CA,Toronto,ON,"M6G 2K3"
"Bobbi Oldridge",,2020-11-07T04:13:48,,bobbelina208@gmail.com,1,17.76,17.76,CA,Saskatoon,SK,"S7J 1E7"
"Brennae Kazmiruk",,2020-11-06T18:53:57,,brkazmiruk@gmail.com,1,51.06,51.06,CA,Warman,SK,"S0K 4S1"
"Jeannie Arnold",,2020-10-16T17:50:52,,greengecko6@hotmail.com,1,38.08,38.08,CA,Winnipeg,MB,"R3M 1K1"
"Gordon Matsalla",,2020-11-04T00:50:52,,gmatsalla@sasktel.net,2,58.77,29.39,CA,Saskatoon,SK,"S7H 4R5"
"Cody Davis",,2020-09-09T12:36:01,,c.davis_12@hotmail.com,1,23.46,23.46,CA,Fernie,BC,"V0B 1M0"
"Antonine Driedger",,2020-10-14T17:10:28,,antoninedriedger@gmail.com,1,40.32,40.32,CA,Winnipeg,MB,"R2H 1B1"
"Elizabeth Bahnuik",,2020-10-05T05:29:16,,lizanne1950@hotmail.com,1,53.28,53.28,CA,Canora,SK,"S0A 0L0"
"Michael Diduch",,2020-11-01T20:43:52,,michaeldiduch@hotmail.com,1,36.16,36.16,CA,Ottawa,ON,"K1R 6P2"
"Nareefa MacGregor",,2020-09-07T23:45:18,,nareefa.macgregor@gmail.com,2,150.23,75.12,CA,"King City",ON,"L7B 1K4"
"Susan Johnson",,2020-11-01T14:47:04,,susan081961@gmail.com,1,20.34,20.34,CA,Windsor,ON,"N9G 2B9"
"Uliana Shafranska",,2020-10-22T18:17:38,,uliana.shafranska@outlook.com,1,23.67,23.67,CA,Whitby,ON,"L1R 0J3"
"Heather Jordan",,2020-10-02T09:52:27,,lemonhouse@sympatico.ca,1,153.68,153.68,CA,Barrie,ON,"L4M 3J3"
"Catherine Campbell",,2020-10-30T01:29:36,,Ghostsister@shaw.ca,1,33.60,33.60,CA,Calgary,AB,"T2W 3V4"
"Safiya Jawando",,2020-09-20T17:35:35,,safiyatsukiko@gmail.com,1,41.75,41.75,CA,Brampton,ON,"L6T 2G5"
"Bianca Varricchio",,2020-10-19T17:58:13,,bvarricchio@videotron.ca,1,105.00,105.00,CA,Montreal,QC,"H1E 5V9"
"Monique Tellier",,2020-09-12T20:48:00,,matellier@hotmail.com,1,57.06,57.06,CA,Winnipeg,MB,"R2M 0M1"
"Jennifer Finateri",,2020-09-30T04:04:26,,jennifer.finateri@gmail.com,1,23.46,23.46,CA,Winnipeg,MB,"R3B 0N8"
"Sandra Hessels",,2020-10-26T01:32:09,,sandrahessels@hotmail.com,1,36.16,36.16,CA,London,ON,"N6H 0B6"
"Marya Levine",,2020-09-18T04:42:04,,maryalslevine@gmail.com,1,36.95,36.95,US,Atlanta,GA,30307
"Michelle Lee",,2020-09-16T23:38:15,,lee.michellelouise@gmail.com,1,23.67,23.67,CA,"North York",ON,"M2N 7K3"
"Helena Debnam",,2020-09-11T17:46:50,,HDebnam@cloud.com,1,25.93,25.93,CA,Kingston,ON,"K7M 8H3"
"Joelle Smart",,2020-11-06T23:45:28,,joellebohn@hotmail.com,1,37.74,37.74,CA,Ebenezer,SK,"S0G 3N0"
"Derek Thomas",,2020-09-25T18:39:49,,starflyer433@gmail.com,2,435.05,217.53,CA,Brampton,ON,"L6X 4J3"
"Tara Weiss",,2020-11-14T21:34:24,,taraweiss1112@gmail.com,1,71.68,71.68,CA,Winnipeg,MB,"R3X 0J9"
"Eric Rennie",,2020-09-28T15:46:02,,erennie@live.com,1,72.32,72.32,CA,Toronto,ON,"M5R 1N2"
"Jocelyn de Moissac",,2020-11-06T20:58:14,,joc@demophotography.com,1,17.76,17.76,CA,Saskatoon,SK,"S7T 0T3"
"Carrie Hooper",,2020-11-10T14:50:35,,eldonhooper@sasktel.net,1,111.88,111.88,CA,"Hudson Bay",SK,"S0E 0Y0"
"Melissa Howells",,2020-09-05T20:06:25,,meli.howls@gmail.com,1,71.68,71.68,CA,"North Vancouver",BC,"V7M 1G3"
"Alyssa Wyshynski",,2020-11-06T18:35:29,,alyssaw_2000@hotmail.com,0,0.00,0.00,CA,Saskatoon,SK,"S7T 0E2"
"Judi Grout",,2020-11-03T02:52:28,,judigrout@gmail.com,1,35.84,35.84,CA,Winnipeg,MB,"R2V 4Y3"
"Sharon Ringwood",,2020-09-08T22:07:33,,sringwood@shaw.ca,3,69.32,23.11,CA,Victoria,BC,"V8S 1B3"
"Leah Coulter",,2020-10-14T05:28:45,,leahmcoulter@gmail.com,1,49.28,49.28,CA,"North Vancouver",BC,"V7L 1C5"
"Saul Darias",,2020-10-25T21:01:33,,aquilles8@aim.com,1,20.95,20.95,US,"Falls Church",VA,22044
"Nicole Rosen",,2020-10-04T18:22:39,,nikkisrosen@gmail.com,1,36.16,36.16,CA,Toronto,ON,"M5N 1M7"
"Kelly Lone",,2020-09-07T20:24:32,,kellyraelone@gmail.com,1,42.56,42.56,CA,Morden,MB,"R6M 1G9"
"Karen Karlberg",,2020-10-31T07:01:54,,karlkar@me.com,1,56.00,56.00,CA,Winnipeg,MB,"R2N 2S9"
"Johanna Kaletzke",,2020-10-22T12:55:04,,joannekaletzke@mymts.net,1,71.68,71.68,CA,Winnipeg,MB,"R2K 1N6"
"Thomas Huet",,2020-10-01T23:08:35,,huet.thomas@gmail.com,1,90.40,90.40,CA,Ottawa,ON,"K1S 5M2"
"Brian Mestdagh",,2020-09-19T19:15:23,,drbrian@mymts.net,1,327.04,327.04,CA,Winnipeg,MB,"R2C 4J5"
"Ben Dore",,2020-10-19T01:40:59,,bdore@me.com,1,22.00,22.00,CA,Calgary,AB,"T2M 0M5"
"Lynn Macdonald",,2020-09-24T00:28:35,,lmacdonald@earls.ca,1,36.95,36.95,US,Boston,MA,02116
"Jolene Koenders",,2020-11-10T13:02:57,,jolene.koenders@usask.ca,1,31.96,31.96,CA,Saskatoon,SK,"S7W 0T9"
"Marie L. Georges",,2020-11-16T00:45:32,,tissa16@hotmail.com,1,52.50,52.50,CA,Laval,QC,"H7M 5Y7"
"Angela Chase",,2020-10-05T12:11:57,,angelachase@sympatico.ca,1,36.16,36.16,CA,Oakville,ON,"L6M 4A2"
"Danee Haines",,2020-11-13T20:34:11,,daneelalonde@sasktel.net,1,58.77,58.77,CA,Arborfield,SK,"S0E 0A0"
"Lauren Smith",,2020-10-23T03:40:26,,mlaurenmsmith@gmail.com,1,23.67,23.67,CA,Barrie,ON,"L4N 8A4"
"brandy katz",,2020-10-02T12:33:23,,brandykatz@gmail.com,1,70.06,70.06,CA,thornhill,ON,"L4J 8T1"
"Jennifer Nakonechny",,2020-11-11T16:24:48,,janakonechny@hotmail.com,1,15.98,15.98,CA,Saskatoon,SK,"S7J 4J6"
"Jasen Fischer",,2020-09-30T11:13:02,,jasenfischer2014@gmail.com,1,35.84,35.84,CA,Toronto,ON,"M6G 2N2"
"Awo Hassan",,2020-09-12T22:33:51,,Hassan.awo@gmail.com,1,128.82,128.82,CA,Toronto,ON,"M1B 6J2"
"Carolyn Hoover",,2020-09-16T23:48:13,,fuglygal@gmail.com,1,41.75,41.75,CA,Cambridge,ON,"N1R 4K1"
"Jocelyn Advent",,2020-10-30T13:04:56,,jocelynadvent@hotmail.com,1,38.08,38.08,CA,Winnipeg,MB,"R2H 0X6"
"Maureen Krauss",,2020-09-11T19:25:22,,mkrauss@htfc.mb.ca,1,23.46,23.46,CA,Winnipeg,MB,"R3B 0R3"
"Justin Carnegie",,2020-09-15T02:37:08,,justin.carnegie@mercuryprint.ca,1,92.66,92.66,CA,London,ON,"N6A 3N8"
"Kala Fawcett",,2020-11-06T18:15:38,,kala.shemrock@gmail.com,1,17.76,17.76,CA,Saskatoon,SK,"S7L 6E8"
"Elaine MacKinnon",,2020-09-21T17:35:43,,elainemmac@gmail.com,1,41.75,41.75,CA,London,ON,"N6J 0A2"
"Morganna Malyon",,2020-10-26T23:25:07,,morgannamalyon@gmail.com,1,59.30,59.30,CA,Brandon,MB,"R7B 4A1"
"Stephanie Young",,2020-11-07T00:08:50,,stephaniecaryl89@gmail.com,1,50.00,50.00,US,"Jamaica Plain",MA,02130
"frankie ray",,2020-11-02T23:27:14,,frankier.0927@edu.gppsd.ab.ca,1,33.60,33.60,CA,"Grande Prairie",AB,"T8V 3B2"
"Nancy Hendry",,2020-09-28T19:17:06,,nancyhendry@shaw.ca,1,35.84,35.84,CA,Winnipeg,MB,"R3P 0V5"
"Jody Max",,2020-09-08T16:00:26,,jodymax01@gmail.com,1,59.83,59.83,CA,Toronto,ON,"M4R 1H8"
"Kim Le",,2020-10-13T15:52:15,,kimlekim@gmail.com,1,36.16,36.16,CA,York,ON,"M6E 4L8"
"Kristin Hosick",,2020-09-25T20:38:40,,kristinhosick@hotmail.com,2,176.28,88.14,CA,Oakville,ON,"L6M 3V4"
"Emily Fan",,2020-11-16T18:36:19,,emilycfan@gmail.com,1,106.22,106.22,CA,Toronto,ON,"M5S 1M8"
"Lisa Draho",,2020-09-23T17:12:11,,lisa@joshuazuckerman.com,1,25.70,25.70,CA,Winnipeg,MB,"R3P 0R3"
"Elizabeth Everett",,2020-11-10T12:32:33,,elizabeth.catherine.everett@gmail.com,1,48.81,48.81,CA,Toronto,ON,"M4E 1G6"
"Louise Jessop",,2020-11-15T10:26:23,,louisejessop@hotmail.com,1,62.10,62.10,CA,"Lower Sackville",NS,"B4C 2Y7"
"Jennifer Robinson",,2020-10-25T21:59:39,,jennrobinson@me.com,1,404.25,404.25,CA,Calgary,AB,"T3G 5S4"
"David Pinchuk",,2020-10-04T19:54:30,,pinchuk@mts.net,1,35.84,35.84,CA,Winnipeg,MB,"R3L 1J2"
"Jillaine Abramofd",,2020-11-13T04:02:37,,jillaine.abramoff@gmail.com,1,25.47,25.47,CA,Saskatoon,SK,"S7M 0C1"
"Robyn Paton",,2020-10-19T13:50:17,,robyn@robynpaton.com,1,54.24,54.24,CA,Ottawa,ON,"K1Y 2E9"
"Phoebe Hindle",,2020-11-01T18:58:23,,phoebe.hindle@gmail.com,1,36.16,36.16,CA,Oakville,ON,"L6L 1A6"
"Danica Nelson",,2020-09-16T16:46:16,,Danicasnelson@gmail.com,1,23.67,23.67,CA,Brampton,ON,"L6T 2E7"
"Tracy Kuzenko",,2020-10-30T03:57:53,,ctkuzenko@hotmail.com,1,35.84,35.84,CA,"Cooks Creek",MB,"R5M 0B3"
"Jenna Withrow",,2020-09-11T17:05:51,,jennafabiolawithrow@gmail.com,1,59.83,59.83,CA,Walkerton,ON,"N0G 2V0"
"Jessica Nieckarz",,2020-09-15T01:28:09,,j.nieckarz@hotmail.com,1,23.46,23.46,CA,Winnipeg,MB,"R2C 0V2"
"Marnie Goldstein",,2020-11-06T12:18:33,,goldsteinmarnie@gmail.com,1,56.50,56.50,CA,"North York",ON,"M5M 2W6"
"Ilyse Smith",,2020-09-29T22:30:14,,smithilyse@gmail.com,1,83.62,83.62,CA,Toronto,ON,"M5P 3B9"
"Meaghan Hunter",,2020-09-20T20:35:10,,meaghan.a.hunter@gmail.com,1,41.38,41.38,CA,Wpg,MB,"R3C 0X8"
"Kathy McCaw",,2020-10-26T13:58:27,,kathymccaw2000@yahoo.ca,2,57.06,28.53,CA,Winnipeg,MB,"R2N 3P1"
"Joella Klein",,2020-09-06T17:59:30,,joella.klein1@gmail.com,1,17.76,17.76,CA,Regina,SK,"S4V 0N7"
"Ashley Brockman",,2020-11-06T23:36:42,,ashsilver@hotmail.com,1,35.52,35.52,CA,Humboldt,SK,"S0K 2A0"
"Rebecca Peterniak",,2020-09-28T14:27:55,,rebecca.peterniak@gmail.com,1,89.60,89.60,CA,Winnipeg,MB,"R3L 0T8"
"Tanja Philion",,2020-09-18T11:16:05,,tanja72@hotmail.ca,1,23.67,23.67,CA,Kitchener,ON,"N2R 1V1"
"Alexis Jessiman",,2020-09-05T15:51:41,,aejessiman@gmail.com,2,520.80,260.40,CA,Winnipeg,MB,"R3M 0J4"
"Brittney Rousseau",,2020-11-06T20:20:22,,bpollon1@hotmail.com,1,330.78,330.78,CA,Saskatoon,SK,"S7H 1T6"
"Jackie Washenfelder",,2020-11-10T05:22:26,,jackie.washenfelder@gmail.com,1,33.96,33.96,CA,YORKTON,SK,"S3N 2R5"
"Frances Costantini",,2020-09-27T03:44:48,,francesam@rogers.com,1,23.67,23.67,CA,Brampton,ON,"L6Y 5L4"
"Kara Greywood",,2020-10-15T22:49:35,,karagreywood@live.com,1,38.08,38.08,CA,"La Broquerie",MB,"R0A 0W0"
"Adam Little",,2020-10-10T05:59:39,,Adamlittle@fedorsennorth.com,1,180.80,180.80,CA,Toronto,ON,"M3H 4G4"
"Laurie Foley",,2020-09-22T10:13:01,,foleylaur@gmail.com,1,82.43,82.43,CA,Toronto,ON,"M4N 0A5"
"jessi foote",,2020-09-08T20:37:36,,jessi-leefoote@live.ca,1,41.38,41.38,CA,Duncan,BC,"V9L 5S4"
"Grace Medvid",,2020-11-10T16:22:35,,graceymedvid@icloud.com,1,15.98,15.98,CA,Preeceville,SK,"S0A 3B0"
"Jessica Neville",,2020-09-18T19:27:07,,jessneville08@gmqil.com,1,77.22,77.22,CA,Vancouver,BC,"V5V 2V8"
"Jerry Slanisky",,2020-10-04T16:00:30,,jslanis@yahoo.ca,1,23.67,23.67,CA,Mississauga,ON,"L4Y 1J7"
"Kayla Hamilton",,2020-11-06T18:42:20,,kaylahamilton1@hotmail.com,1,17.76,17.76,CA,Saskatoon,SK,"S7T 0R1"
"Kimberly Visram",,2020-11-10T12:34:08,,kvisram@shtb-law.com,1,31.96,31.96,CA,Saskatoon,SK,"S7T 0V6"
"Morgan Bullee",,2020-11-08T06:13:52,,Morganbullee@gmail.com,1,35.52,35.52,CA,Warman,SK,"S0K 4S2"
"Katelyn Kurtz",,2020-10-28T05:00:33,,katiekurtz14@hotmail.com,1,71.68,71.68,CA,Winnipeg,MB,"R3K 1Y7"
"Rebecca Dworkin",,2020-10-01T20:58:31,,bekdworkin@yahoo.ca,1,36.16,36.16,CA,Toronto,ON,"M6C 2W3"
"Lyndsay Knorr",,2020-11-03T20:19:21,,knorrlyndsay7@gmail.com,1,42.18,42.18,CA,Saskatoon,SK,"S7K 6T4"
"Kathleen Barker",,2020-09-12T15:07:19,,kathleen.barker@bell.ca,1,23.67,23.67,CA,Queensville,ON,"L0G 1R0"
"payman saadati",,2020-09-16T13:11:44,,saadati.p@gmail.com,1,38.80,38.80,CA,Gatineau,QC,"J8V 2T5"
"Marcey Dveris",,2020-09-11T14:33:39,,mdveris@shaw.ca,1,56.00,56.00,CA,Winnipeg,MB,"R3V 1T2"
"Chantelle Gauthier",,2020-09-26T21:19:56,,chantelle.gauthier@gmail.com,1,53.76,53.76,CA,Niverville,MB,"R0A 0A2"
"Sascha Romer",,2020-09-15T00:11:37,,sascharomer@me.com,1,22.00,22.00,CA,Montreal,QC,"H3J 2W9"
"Jerry Rubin",,2020-10-08T21:23:20,,jerryrubinartwork@gmail.com,2,125.44,62.72,CA,Winnipeg,MB,"R2V 3S3"
"Leah Mead",,2020-09-24T19:13:17,,leahmariemead@gmail.com,1,23.46,23.46,CA,Langley,BC,"V3A 3S6"
"Eve Gindin",,2020-10-18T02:37:55,,evegindin@me.com,1,35.84,35.84,CA,Winnipeg,MB,"R3P 2E7"
"Sara Janssen",,2020-10-06T00:34:27,,saramichellejanssen@gmail.com,1,56.00,56.00,CA,Winnipeg,MB,"R2J 4K1"
"Melissa Serbin",,2020-10-23T16:15:29,,melissanserbin@gmail.com,1,330.40,330.40,CA,Winnipeg,MB,"R3N 1P7"
"Renee Melnyk",,2020-09-06T21:20:35,,rcmelnyk@shaw.ca,2,50.40,25.20,CA,"Sherwood Park",AB,"T8H 2H7"
"Liisu Altmaa",,2020-11-06T23:41:44,,altmaaliisu@gmail.com,1,17.92,17.92,CA,"Brentwood Bay",BC,"V8M 1C1"
"Cassie Austin",,2020-10-20T02:03:57,,cassie_austin@live.ca,1,56.50,56.50,CA,"Proton Station",ON,"N0C 1L0"
"Chris Todd",,2020-09-28T14:53:36,,c.scott.todd@gmail.com,1,111.30,111.30,CA,Calgary,AB,"T3H 5P5"
"Ashkey Shewchuk",,2020-11-14T21:04:33,,ashleyvogelsang07@hotmail.com,1,23.25,23.25,CA,Saskatoon,SK,"S7V 0G2"
"Shannon McNicol",,2020-09-05T18:49:23,,shannonmcnicol@hotmail.com,2,107.52,53.76,CA,Winnipeg,MB,"R3Y 0E3"
"Ashely Bell",,2020-11-06T20:26:05,,ash.oo@hotmail.com,1,17.76,17.76,CA,Saskatoon,SK,"S7S 1L5"
"Boris Sandford",,2020-09-27T06:12:53,,boris.sandford@gmail.com,1,23.46,23.46,CA,Vancouver,BC,"V5Z 1R1"
"Bonnie Laurie",,2020-09-10T22:04:04,,Blaurie@rogers.com,1,79.10,79.10,CA,Toronto,ON,"M4P 3B7"
"Samantha Wood",,2020-11-12T23:37:02,,samantha.wood@live.ca,1,32.26,32.26,CA,Winnipeg,MB,"R3P 0T8"
"Sarah Lindenberg",,2020-10-30T17:32:14,,sarahmarantz@gmail.com,1,20.34,20.34,CA,Toronto,ON,"M5R 1X7"
"Sonya Clark",,2020-10-03T16:49:29,,sonya.clrk@gmail.com,1,33.60,33.60,CA,Calgary,AB,"T3M 2H5"
"Renee Schuler",,2020-11-06T18:30:24,,renee.schuler@spiritsd.ca,1,17.76,17.76,CA,Saskatoon,SK,"S7N 0J3"
"Carla Thorel",,2020-11-10T11:41:29,,cthorel@outlook.com,1,31.96,31.96,CA,Saskatoon,SK,"S7K 2M7"
"Susan Letwin",,2020-11-07T23:28:49,,jsletwin@rogers.com,1,72.32,72.32,CA,Brantford,ON,"N3R 6M1"
"Chris Howden",,2020-09-13T18:51:34,,crhowden@yahoo.ca,1,92.66,92.66,CA,Toronto,ON,"M6J 1N6"
"Natalie Rydberg",,2020-10-27T16:08:41,,natalie_ann_@hotmail.com,1,41.38,41.38,CA,Winnipeg,MB,"R2M 5R4"
"Emmeline Meyers",,2020-10-01T16:15:10,,emmameyers237@gmail.com,1,32.00,32.00,US,Allston,MA,02134
"Tiffany Martinka",,2020-11-17T09:56:00,,tiffanymartinka@hotmail.com,1,38.79,38.79,CA,"St Benedict",SK,"S0K 3T0"
"Sarah Dawson",,2020-11-03T02:50:10,,sarahdawson@shaw.ca,1,35.84,35.84,CA,Winnipeg,MB,"R3T 2Y2"
"Bobbi Oldridge",,2020-11-07T04:13:48,,bobbelina208@gmail.com,1,17.76,17.76,CA,Saskatoon,SK,"S7J 1E7"
"Annabel Fitzsimmons",,2020-09-12T02:55:41,,annabel@annabelfitzsimmons.com,1,59.83,59.83,CA,Toronto,ON,"M5M 1Z1"
"Lana McCarthy",,2020-09-16T00:15:55,,lanam@sympatico.ca,1,74.58,74.58,CA,Toronto,ON,"M4E 3G2"
"Patricia Griffith",,2020-10-12T03:33:56,,pgriff140@gmail.com,1,35.84,35.84,CA,Winnipeg,MB,"R2M 1Y7"
"Alessia Guzzi",,2020-09-11T00:22:21,,a.guzzi@outlook.com,1,43.62,43.62,CA,Winnipeg,MB,"R2P 2S2"
"Diane Laurendeau",,2020-09-14T16:00:29,,dianelaurendeau@shaw.ca,3,141.00,47.00,CA,Winnipeg,MB,"R3V 1T4"
"Christine Flynn",,2020-10-08T11:56:26,,ann25208@optonline.net,1,30.00,30.00,US,"Hampton bays",NY,11946
"Genevieve O'Keefe",,2020-09-24T13:56:54,,Genevieve.okeefe@hotmail.com,1,22.00,22.00,CA,Gatineau,QC,"J8P 3V2"
"Catie Johnston",,2020-10-16T23:41:02,,catie.mm.johnston@gmail.com,1,53.76,53.76,CA,"Île des Chênes",MB,"R0A 0T0"
"Ashleigh Reznick",,2020-10-02T22:41:16,,reznickashleigh@gmail.com,1,92.66,92.66,CA,Toronto,ON,"M6C 3W2"
"Kaitlyn Tyschenko",,2020-09-27T02:20:04,,kaitlynrtyschenko@gmail.com,1,36.16,36.16,CA,Etobicoke,ON,"M8Y 0A1"
"Stacy Au-Yeung",,2020-11-06T18:12:20,,stacylindsay9@gmail.com,1,17.76,17.76,CA,Saskatoon,SK,"S7N 0R6"
"Julianne Tabata",,2020-11-12T00:19:42,,julie273@hotmail.com,1,39.49,39.49,CA,Toronto,ON,"M4L 2A2"
"Derek Thomas",,2020-09-25T18:39:49,,starflyer433@gmail.com,2,435.05,217.53,CA,Brampton,ON,"L6X 4J3"
"Lorraine Munoz",,2020-09-13T06:12:17,,lgsykes@hotmail.com,1,22.00,22.00,CA,Edmonton,AB,"T6J 0N7"
"Ainsley Bell",,2020-09-30T23:35:43,,abell@winebc.com,1,35.84,35.84,CA,Kelowna,BC,"V1V 1N3"
"Nikki Backman",,2020-11-02T16:56:14,,nbackman4@gmail.com,1,35.84,35.84,CA,Winnipeg,MB,"R2J 2E5"
"Carrie Hooper",,2020-11-10T14:50:35,,eldonhooper@sasktel.net,1,111.88,111.88,CA,"Hudson Bay",SK,"S0E 0Y0"
"judith kimel",,2020-09-23T13:28:06,,judith.kimel@utoronto.ca,1,30.45,30.45,CA,toronto,ON,"M6G 2X2"
"Sarah Lindenberg",,2020-10-30T17:32:14,,sarahmarantz@gmail.com,1,20.34,20.34,CA,Toronto,ON,"M5R 1X7"
"Melissa Howells",,2020-09-05T20:06:25,,meli.howls@gmail.com,1,71.68,71.68,CA,"North Vancouver",BC,"V7M 1G3"
"Ashley Slovack",,2020-11-07T04:05:26,,ashleyslovack@hotmail.com,1,17.76,17.76,CA,Saskatoon,SK,"S7V 1E5"
"Jaclyn Chattaway",,2020-09-22T15:04:56,,jaclyn.chattaway@gmail.com,1,23.67,23.67,CA,Ottawa,ON,"K2G 3S9"
"Rikki Morrison",,2020-11-06T22:04:16,,fedlerikki@hotmail.com,1,37.74,37.74,CA,"North Battleford",SK,"S9A 0H4"
"Robyn Brown",,2020-09-18T23:28:02,,r.brown84@shaw.ca,1,41.38,41.38,CA,Winnipeg,MB,"R3L 1K5"
"Saul Darias",,2020-10-25T21:01:33,,aquilles8@aim.com,1,20.95,20.95,US,"Falls Church",VA,22044
"Lisa Pormeister",,2020-10-16T20:01:35,,lisaandjim@shaw.ca,1,34.00,34.00,CA,Winnipeg,MB,"R3B 0G5"
"RonniLyn Pustil",,2020-09-16T01:37:15,,ronnilynp@gmail.com,1,149.16,149.16,CA,Toronto,ON,"M6G 2K6"
"Kayla Reeve",,2020-11-06T19:12:37,,kaylacmorgan@gmail.com,1,37.74,37.74,CA,Regina,SK,"S4S 2J3"
"Cidnee Lorenz",,2020-09-17T15:49:54,,lcidnee@gmail.com,1,34.60,34.60,CA,Lethbridge,AB,"T1K 6A1"
"Johanna Kaletzke",,2020-10-22T12:55:04,,joannekaletzke@mymts.net,1,71.68,71.68,CA,Winnipeg,MB,"R2K 1N6"
"Melissa Ens",,2020-11-08T12:41:10,,melissaens3@gmail.com,1,17.76,17.76,CA,Osler,SK,"S0K 3A0"
"Chloe Clarke",,2020-10-15T00:44:53,,chloeclarke247@gmail.com,1,52.50,52.50,CA,Wetaskiwin,AB,"T9A 3H5"
"Mary Karam",,2020-09-14T17:34:41,,carol.karam@lei.ca,1,44.01,44.01,CA,brampton,ON,"L6Z 3M8"
"Heather Watson",,2020-09-29T12:16:58,,heather.watson8@gmail.com,1,32.95,32.95,US,Troy,NY,12180
"Marie L. Georges",,2020-11-16T00:45:32,,tissa16@hotmail.com,1,52.50,52.50,CA,Laval,QC,"H7M 5Y7"
"Ben Dore",,2020-10-19T01:40:59,,bdore@me.com,1,22.00,22.00,CA,Calgary,AB,"T2M 0M5"
"Jill Lubachowski",,2020-11-07T14:45:37,,jillhoehn@hotmail.com,1,35.52,35.52,CA,Lemberg,SK,"S0A 2B0"
"Angela Chase",,2020-10-05T12:11:57,,angelachase@sympatico.ca,1,36.16,36.16,CA,Oakville,ON,"L6M 4A2"
"Linda Flock",,2020-09-27T23:45:14,,linda.flock@gmail.com,1,50.40,50.40,CA,Calgary,AB,"T2T 2M2"
"Danee Haines",,2020-11-13T20:34:11,,daneelalonde@sasktel.net,1,58.77,58.77,CA,Arborfield,SK,"S0E 0A0"
"Erika Paschak",,2020-09-27T00:58:30,,epaschak@hotmail.com,1,112.00,112.00,CA,Winnipeg,MB,"R2R 1X3"
"brandy katz",,2020-10-02T12:33:23,,brandykatz@gmail.com,1,70.06,70.06,CA,thornhill,ON,"L4J 8T1"
"Shawn Mooney",,2020-11-06T01:30:13,,me@shawnmooney.com,1,33.60,33.60,CA,Airdrie,AB,"T4B 3R7"
"Jennifer Nakonechny",,2020-11-11T16:24:48,,janakonechny@hotmail.com,1,15.98,15.98,CA,Saskatoon,SK,"S7J 4J6"
"Stephanie Lepp",,2020-11-10T23:46:45,,lepp.stephanie@gmail.com,1,15.98,15.98,CA,Saskatoon,SK,"S7V 1C2"
"Jennifer Luther Thomas",,2020-09-25T06:19:09,,jensfer@live.com,1,25.70,25.70,CA,Vancouver,BC,"V5X 1S5"
"Awo Hassan",,2020-09-12T22:33:51,,Hassan.awo@gmail.com,1,128.82,128.82,CA,Toronto,ON,"M1B 6J2"
"Jasen Fischer",,2020-09-30T11:13:02,,jasenfischer2014@gmail.com,1,35.84,35.84,CA,Toronto,ON,"M6G 2N2"
"Saniza Mohammed",,2020-11-02T02:59:38,,saniza101@gmail.com,1,53.76,53.76,CA,Winnipeg,MB,"R2X 0E9"
"Tessa Ermel",,2020-11-10T14:29:24,,tessa.ermel@gmail.com,1,17.76,17.76,CA,Saskatoon,SK,"S7J 2R7"
"Jocelyn Advent",,2020-10-30T13:04:56,,jocelynadvent@hotmail.com,1,38.08,38.08,CA,Winnipeg,MB,"R2H 0X6"
"Maureen Krauss",,2020-09-11T19:25:22,,mkrauss@htfc.mb.ca,1,23.46,23.46,CA,Winnipeg,MB,"R3B 0R3"
"Hotwire Electric",,2020-09-10T16:09:35,,info@hotwire-electric.com,2,210.18,105.09,CA,"Richmond Hill",ON,"L4C 9Y6"
"Kayla Spray",,2020-11-10T06:18:58,,kayla.spray@gmail.com,1,49.94,49.94,CA,Kelvington,SK,"S0A 1W0"
"Donna Budney",,2020-10-10T00:23:30,,ddbudney@gmail.com,1,23.46,23.46,CA,Sorrento,BC,"V0E 2W2"
"Morganna Malyon",,2020-10-26T23:25:07,,morgannamalyon@gmail.com,1,59.30,59.30,CA,Brandon,MB,"R7B 4A1"
"Melissa Donadio",,2020-09-08T15:39:45,,melissa.donadio@rogers.com,1,41.75,41.75,CA,Toronto,ON,"M5P 0A1"
"Caley Ostrowski",,2020-11-16T12:36:33,,caleyscheidt@hotmail.com,1,41.38,41.38,CA,Major,MB,"S0L 2H0"
"Jessica Wilkin",,2020-11-14T23:59:26,,jesswilkin@hotmail.com,1,41.75,41.75,CA,Toronto,ON,"M4V 2B7"
